seg_id,time_to_failure
seg_00030f,3.011145971965114
seg_0012b5,4.973741358231135
seg_00184e,5.023128919978079
seg_003339,8.261179552581885
seg_0042cc,6.808901631221209
seg_004314,2.4340373794503916
seg_004cd2,8.28006337929708
seg_004ee5,4.594540600143446
seg_004f1f,5.147619148041871
seg_00648a,2.6349405216415223
seg_006e4a,2.644202933652609
seg_007a37,4.4182865581657165
seg_00a37e,3.197568259027433
seg_00be11,2.6052199666392504
seg_00c35b,8.263542982843475
seg_00cc91,5.044049067806969
seg_00e5f7,5.624531640035059
seg_00f3b9,3.4209023630021442
seg_010eab,6.683124815642527
seg_0125d9,5.232865754323045
seg_0144cb,4.9599812368482
seg_0165c6,9.757257750023204
seg_016913,4.3703753516483985
seg_016cdb,5.406328879827924
seg_017314,5.924069675369235
seg_01a8dc,4.288685736441593
seg_01c775,7.009117933917874
seg_01ecb0,4.162339178335534
seg_02042f,2.0904367452724064
seg_025e78,5.284517903158715
seg_032822,4.694543577434335
seg_0339ca,6.312323955829168
seg_037461,4.300299839968837
seg_038879,6.443922034658421
seg_03d386,3.0530000596603615
seg_03d63e,4.651352279484656
seg_03d680,9.884595048891178
seg_03f380,3.7436428432386637
seg_0445d7,6.512311009432953
seg_046c28,2.6866244600190257
seg_0488a1,6.600592286888788
seg_049957,8.702476395848672
seg_04a696,7.954641774030405
seg_04ae38,4.269025466299085
seg_04b87a,8.536365829194406
seg_04cceb,7.572661320490553
seg_04ee93,7.693294235336685
seg_04fd93,5.698641068339077
seg_0536c9,3.7137679158955588
seg_055127,6.751987278230734
seg_05a1b0,4.495790135777574
seg_05a4ad,6.6290224859796965
seg_05b66a,8.489234112876517
seg_05bef4,2.7189412208912325
seg_05e0d7,4.992733803790576
seg_05f126,9.227237472642747
seg_05f9d6,6.524042645107546
seg_060ce4,3.1396644812173227
seg_061a33,7.235436521404775
seg_0620e6,6.477874601657099
seg_063865,6.763699352016153
seg_065588,4.318902144263238
seg_06893f,2.119999939466959
seg_06b8c9,5.115216687441276
seg_06bbc5,3.0638816420271757
seg_06d4a2,3.384563137502705
seg_06d7ba,2.630595364991332
seg_070bb0,1.7515711451692417
seg_071067,2.267159760261874
seg_073696,9.286312786887567
seg_075340,5.290043138689796
seg_075f77,2.663791088796378
seg_0775a7,3.696751014527016
seg_077b7e,5.1728512867406184
seg_079e34,3.637407833246117
seg_07c815,4.45807643994175
seg_07cd72,4.575217383424582
seg_07f37c,4.5762637731521645
seg_07f8df,4.243314340926556
seg_07fc6d,7.630558244954365
seg_086a61,10.039300994771342
seg_0870ab,5.654309513637896
seg_0879a8,9.159516228309169
seg_08b136,8.376314736965742
seg_08f441,4.635772414414939
seg_08fd5b,3.6752372878340482
seg_091c9d,8.76768291199413
seg_093a0a,7.48923003724031
seg_0968f1,8.099489369827293
seg_0981f3,1.6900541223275425
seg_09dd59,7.92669889905533
seg_09ed4e,9.985892876833594
seg_09f0ff,4.384350465561136
seg_0a0fbb,10.672026830089187
seg_0a1bd0,4.238992593739761
seg_0a42ba,9.333465380515543
seg_0a45a1,3.437823723821631
seg_0a97c4,5.676094279849988
seg_0aa0fb,6.995500503180537
seg_0b07c7,4.24715077805667
seg_0b082e,9.637724481361442
seg_0b32f7,3.869456373145754
seg_0b3b94,5.253527883957323
seg_0b48c4,3.7592818039700022
seg_0b4b24,3.832153637834267
seg_0b54ac,4.181984764054825
seg_0b76f5,9.386516313925677
seg_0b9ad8,7.632664564103967
seg_0b9ba3,9.49564654678207
seg_0ba210,11.061696052653001
seg_0ba585,4.597422196689424
seg_0bb5fd,6.390539187988214
seg_0bc877,2.013830401417331
seg_0be6ee,1.88933631531805
seg_0c12cc,7.95009346684366
seg_0c1d3a,4.472977812493062
seg_0c247b,6.336435395416741
seg_0c3943,4.056223801012152
seg_0c4e31,2.356837871833539
seg_0c74cf,2.5410875736866045
seg_0c8502,9.599633157021259
seg_0c89ce,6.093646485485211
seg_0c9aa8,8.967770533675614
seg_0cb81b,2.428379732045839
seg_0cca14,4.9219363650585155
seg_0cdcc8,2.937538551633535
seg_0cf651,3.045000871157213
seg_0d0250,4.6936832449785975
seg_0d04b9,5.074961349886079
seg_0d13a7,4.974605345746203
seg_0d434c,9.8767999613105
seg_0d540e,2.8309844597195917
seg_0d663a,8.049610977462473
seg_0d6d68,5.805309793383426
seg_0d762e,6.301520173648505
seg_0d833c,7.4982384491154725
seg_0dae4b,3.4678897080075872
seg_0dc38f,2.4585751020037865
seg_0dcc40,6.544072959787761
seg_0df469,4.198991890560556
seg_0df75c,9.54566671435422
seg_0dfe8c,5.138222409012159
seg_0e1370,2.577014111915393
seg_0e1fbe,5.695500186609363
seg_0e3739,5.588959982704124
seg_0e3d44,1.777715540691192
seg_0e3ed2,2.1457670478238526
seg_0e4833,10.269861648097582
seg_0e7cc5,7.803698859457284
seg_0e8b79,8.965791606573262
seg_0e9987,4.818249469356239
seg_0e9bb3,5.26914581588968
seg_0eb333,1.9468968050824333
seg_0ebfd9,5.803442745255561
seg_0f565c,3.9551189709456462
seg_0f74a3,6.481816752147534
seg_0f8961,9.076049413955834
seg_0fc67a,9.277406905564192
seg_0fca83,4.334644725824429
seg_0fd3ff,3.6403586909289016
seg_1010ad,8.322173850096362
seg_103b32,4.133856740819903
seg_105cd9,3.4429575126083347
seg_1084af,5.5839747225419964
seg_10a595,3.9473505200910717
seg_10c09d,9.05935510361763
seg_10f3a6,4.136371686510859
seg_112b81,5.7179712940358565
seg_1144bc,11.749762801243591
seg_114b79,5.467113540509673
seg_115617,4.028101709321856
seg_115a92,4.017411289490308
seg_11647f,3.8117000873037927
seg_117278,5.2011552806298225
seg_117ff4,4.268328972580915
seg_11860f,6.238995089882908
seg_1201e8,4.3476655917664075
seg_121446,7.460385808089186
seg_121cba,3.617052964844296
seg_122ba9,4.875894141630468
seg_123dd4,8.224042660169596
seg_12ac20,9.77631364861014
seg_12b9ba,5.372858629201487
seg_12ee6e,4.692022643397388
seg_130e17,2.627091543034031
seg_13468a,5.653884071374331
seg_136285,6.329657820190456
seg_136695,8.045993581496043
seg_137f8a,8.279600589153176
seg_138807,4.971656109130413
seg_13c2f0,5.0409777340863275
seg_13e25f,6.924116707861577
seg_140bc5,2.8642195522709417
seg_141f34,11.19647582056445
seg_146926,10.286116171906674
seg_148698,8.871998319919811
seg_14ad27,2.111960828913224
seg_14c054,7.823890676326282
seg_14c371,8.889283185576591
seg_14c435,3.2443425287924277
seg_14c89d,5.315916366594104
seg_14c8ce,7.345622808879451
seg_14d1d3,5.702072423768087
seg_14f5f0,7.723826320670283
seg_151368,6.97789253866334
seg_151d92,2.4392045536799607
seg_153d6a,10.2135106892563
seg_154361,8.111034848934905
seg_1562cb,9.517047965615575
seg_158691,3.378976483583106
seg_158764,5.469907365345106
seg_15adff,3.9239980535424746
seg_15bf25,8.398983981498484
seg_15c9f9,3.1517074498135442
seg_161aeb,7.557351600778291
seg_161f5f,2.377921665138076
seg_162fc4,7.2722046838860805
seg_16566c,5.157958287781849
seg_166f70,8.957620458837336
seg_168d1c,6.628139333507509
seg_16a270,7.519877044773125
seg_16c3a7,5.747577018560216
seg_17067e,5.178009351946849
seg_170684,7.046139418527635
seg_170a0c,10.50331190814396
seg_176542,6.8167374556688305
seg_17799c,7.237871142827423
seg_179d90,8.395509393700285
seg_17adc0,4.670126362722129
seg_17d1ff,5.782386062784509
seg_17e596,8.593346486008349
seg_180481,5.1946949289888265
seg_18096a,7.070328966859942
seg_1815fe,9.113556732225234
seg_1827c5,9.213112437989164
seg_184222,4.673099492529651
seg_185ad6,8.155042627118187
seg_18d1d0,3.8242316392877163
seg_18d307,2.4107083887536978
seg_18f633,2.4700081509175593
seg_18f853,6.006103129649846
seg_18fb65,3.2182052723536527
seg_193404,10.956820082024471
seg_19515c,5.057918399855213
seg_195eda,6.430544212337471
seg_1969c8,8.255928007860994
seg_19b08e,4.641497738916869
seg_19b9dd,6.402903987882089
seg_19e1ff,6.840095925649212
seg_19ec5c,10.6788261676955
seg_1a0e94,8.655582140630512
seg_1a0eca,5.863590838185779
seg_1a671a,4.122984911118218
seg_1a791c,4.865472365627182
seg_1a8e06,3.31784145987095
seg_1a8f0d,4.5667179148051344
seg_1a8f2c,7.508234652293505
seg_1abcaf,1.9059369170512568
seg_1ac9e2,4.564310163799957
seg_1ae362,7.896003588866031
seg_1afa29,2.5261844256475072
seg_1b08a4,6.9098145912698
seg_1b1ad8,4.690860256989902
seg_1b2298,8.450641408882325
seg_1b78af,4.638455199480041
seg_1baf33,4.69798689490952
seg_1bd38e,8.914489243481965
seg_1bf7b3,2.8681988988671545
seg_1c401b,7.0940591769664785
seg_1c4c5b,5.037591838904174
seg_1c4e72,5.834054251059992
seg_1c849d,5.725302316024472
seg_1c904f,2.858801590814499
seg_1c929e,5.251103579927081
seg_1cb942,10.350171640406032
seg_1cd352,5.4615736980214145
seg_1cf1b5,4.764195190040443
seg_1d044c,3.6545581291779476
seg_1d11e5,4.658956422384858
seg_1d596d,4.646449353390391
seg_1d980f,4.242088778952667
seg_1da819,4.657652718580849
seg_1db443,5.74997104946153
seg_1db8e8,10.204997090839317
seg_1dec9c,9.240180283639727
seg_1e0523,3.372410474454043
seg_1e0b82,7.582949631579893
seg_1e572b,8.743324945312022
seg_1e617a,3.5606747112726844
seg_1e61d6,2.687716642137253
seg_1e677e,5.7050988009197585
seg_1eae76,6.518466672417829
seg_1ebe6b,3.540457778811419
seg_1ece48,4.1340743977652314
seg_1eeb8f,4.005703957815815
seg_1ef708,2.698849167523274
seg_1f1e60,8.509854943387488
seg_1f3d44,7.2774910455550295
seg_1f3ede,3.1424831701674316
seg_1f5240,4.128515949171375
seg_1f7cf8,3.3274923731349784
seg_1f9aed,5.792511526760986
seg_1fa983,2.275760964060272
seg_1fc7ab,5.917638031325607
seg_1fe311,10.12571057841209
seg_2005a7,6.427480844013376
seg_2018c8,9.60300657138896
seg_204dc6,2.9798687018269745
seg_208ba5,3.7954480453160455
seg_2099f4,5.9734448981200785
seg_20a990,4.421186818138822
seg_20b8d0,5.964595991417647
seg_20cbac,4.402172619297268
seg_20cc25,2.1720424355856274
seg_20d9de,10.32891128329806
seg_20e9ad,5.468405964240431
seg_210388,6.241961282601961
seg_211299,6.548280966589138
seg_211486,9.121363670310899
seg_214492,3.464133508418727
seg_217eed,4.19677531654233
seg_218049,3.3613880135454353
seg_21eebb,4.664467793841181
seg_21faa9,10.233868803722716
seg_222c5f,1.8616488486622496
seg_225320,9.812501697702665
seg_226e60,8.25877320778931
seg_229eda,5.790723698917995
seg_22e509,4.696430059477009
seg_2313d1,5.294190031676461
seg_232559,9.810248471894264
seg_23323e,3.5847753146398516
seg_2367fb,8.149650503659629
seg_238242,8.918065265621511
seg_2383c2,5.711768929964749
seg_2396a2,2.577036592944363
seg_23b123,11.532609227146821
seg_23bdf9,6.564666528137599
seg_23c947,1.8250433344010766
seg_23efb0,5.370904441027067
seg_23f823,4.056746402761018
seg_23fe27,7.637933656569984
seg_241266,3.6987290403820485
seg_24157a,6.217433471351704
seg_24458d,4.908145248786392
seg_2465ce,6.860762540295022
seg_247262,5.804468533553078
seg_24ba8d,6.491261506627676
seg_24c078,2.1012459619004753
seg_24c1c9,5.26678443919076
seg_24e071,3.3145366132451146
seg_24f338,0.9730223307533001
seg_257b8a,6.897860869286038
seg_2597af,5.287372555161859
seg_259c63,5.364775975528852
seg_259d65,4.4648690651311655
seg_259dd3,7.911128325853268
seg_25aa9f,9.371997661281664
seg_25ab3f,3.3091802570012514
seg_25b38a,7.0769106743664825
seg_25c8dc,7.65555643174462
seg_25cca7,6.739673893491839
seg_25e76d,3.2019014487188553
seg_26049e,8.868617852230654
seg_263deb,5.150272292773748
seg_263fb3,3.432546950270792
seg_2642d0,4.443450219125839
seg_2642d4,5.425536136109473
seg_264c7d,7.190416846852441
seg_266805,4.910338576450654
seg_266c6e,5.169132626971173
seg_266d4e,5.744854855573219
seg_268249,7.409094512012263
seg_268625,2.99792773869728
seg_268956,5.300721645693852
seg_26a2a0,0.2914394354059123
seg_26cba3,3.4110024743303295
seg_26edaa,9.78480304137436
seg_2700bd,4.854907435004697
seg_272a47,1.6166546240857662
seg_274a1a,6.565114086145968
seg_2774c4,9.643749618117702
seg_279725,8.024307986897602
seg_27a282,6.299260219618046
seg_27b7c8,8.082857212306871
seg_27db4d,6.864786849587844
seg_27de37,7.556223626491838
seg_27f532,8.32529427562567
seg_27ff17,4.460280026976518
seg_280863,1.0788975526858449
seg_280e3b,2.5379208120628025
seg_284223,6.728988196265728
seg_284923,9.434720117932137
seg_287e60,2.7232547777898946
seg_287fef,2.387216695372174
seg_288001,5.21624695973567
seg_2883ec,8.101583841903262
seg_289d99,1.9366588101133844
seg_28fc32,6.92094085200813
seg_29022f,2.622451052747876
seg_2916e3,7.364672575126784
seg_293dbf,4.194138138751398
seg_293dc2,2.587912523176586
seg_29475f,3.9597935165417804
seg_295b1c,8.556754485120155
seg_2977cd,5.561463019956845
seg_29a073,6.2881164334843
seg_29acb7,4.938742125567206
seg_29c772,5.751347166553174
seg_29c906,4.853203229959628
seg_29d497,6.656909343354467
seg_29d4c6,9.696906161139193
seg_29e799,5.4370152679986115
seg_2a0ace,9.819669339049726
seg_2a0afc,6.137195808023167
seg_2a0dc0,9.412573577722718
seg_2a2f1e,6.2913247319065615
seg_2a4551,6.651920713000243
seg_2a6343,9.329954056097751
seg_2a8351,3.6442450996940154
seg_2aa101,2.259035918762977
seg_2abd33,3.315716139554432
seg_2b2cb3,6.534467464252847
seg_2b372b,4.424061801769621
seg_2b4959,5.176152643649733
seg_2b6d52,7.01809843484412
seg_2ba79a,1.662714501973776
seg_2bcbde,8.71918030063935
seg_2be983,9.120011600918534
seg_2bf5be,7.828753117328929
seg_2bf9dd,7.4790135315879365
seg_2c3203,2.9683020562422984
seg_2c5e9f,6.374778645488974
seg_2c6011,5.603846766872925
seg_2c69e4,7.129764855167542
seg_2c762c,5.618016568501954
seg_2cac57,8.833681085446521
seg_2cadc0,6.665225429255455
seg_2cdbe3,4.556814165854796
seg_2d3828,6.756773056430079
seg_2d402d,2.390829253248919
seg_2d427f,1.695689277584175
seg_2d5544,4.725944048641949
seg_2d7cc4,4.345875752202039
seg_2d92f0,9.440514705184157
seg_2db7dc,4.754652782329425
seg_2dc6ff,2.0452392758070355
seg_2dccec,4.636055746125922
seg_2dcd3a,3.4634287660665732
seg_2dcd84,6.6466041920624415
seg_2dfb91,4.002702250007221
seg_2e2372,7.1931753123845
seg_2e50fb,4.363538463525643
seg_2e64af,5.362976674796791
seg_2e71dd,3.0195055912907725
seg_2e88dd,7.667241819611976
seg_2e917f,5.565867818306355
seg_2e9a47,7.392959550112771
seg_2ea616,4.848122188374246
seg_2eccb9,4.2376825939014395
seg_2ece02,3.9424202264129713
seg_2ed79b,4.322206599054758
seg_2eddf6,7.084060620399207
seg_2ee95c,9.32689894645315
seg_2efd5c,8.550200779031387
seg_2f1664,6.83713165215682
seg_2f4f14,4.672102414598419
seg_2f5695,4.858832450836774
seg_2f60db,8.105403258168732
seg_2f86cd,2.1304593085467327
seg_2f8e19,7.155514235540588
seg_2f8f6d,9.041885758504227
seg_2f9336,6.375444273262502
seg_2f9581,5.0255202587476155
seg_2fb672,8.362272675510907
seg_2fe382,5.2113566262192785
seg_301c1e,6.449486740963129
seg_30207d,9.604252759092379
seg_304581,5.118117689004127
seg_304b87,3.891431911103884
seg_304df5,7.754886319040658
seg_30501b,7.9754640568768425
seg_3065ba,5.047546173230838
seg_30661b,4.106165975532733
seg_306756,6.79907776341372
seg_30ad2a,1.9938026634296362
seg_30b043,3.183814985863617
seg_30da11,3.99985607530865
seg_30fd84,8.847071815020145
seg_310230,2.4933769729572828
seg_31064b,2.9041115221224243
seg_311499,2.36878283574794
seg_311b5e,2.5364122145555257
seg_3128e6,5.940009702651611
seg_3151ff,5.837092562526454
seg_31631c,7.188119833986157
seg_316f86,3.8636140152754623
seg_318135,2.1348138421743577
seg_31a51f,3.277625528956401
seg_31a6cd,3.936930027335127
seg_31b808,6.41336316526155
seg_31c0f4,9.008939083811178
seg_31d763,6.433766443023172
seg_31d7bf,2.360724483154043
seg_31d810,7.043109337625157
seg_31ddc5,6.495750308677092
seg_3234ca,4.459231983234787
seg_324447,5.708741687822512
seg_324537,5.877355869568698
seg_325790,4.855050606742361
seg_326eb7,4.9158491711687375
seg_327ed4,4.599499472963196
seg_32906d,2.130390648432696
seg_32ad0f,10.46478952111983
seg_32c904,8.363777994947656
seg_32d747,4.8959476364230605
seg_32e763,3.948851125972108
seg_32f3a9,5.170171534381617
seg_32f6df,6.440597065694204
seg_32f72d,5.3530039998863765
seg_32fc4e,9.779197714979253
seg_330579,5.111929015578137
seg_3319b5,8.46074441661698
seg_331f2b,10.153145071691313
seg_3340b9,4.8702746171086915
seg_335170,2.9622007706069238
seg_337b8c,4.733807019992214
seg_339f80,5.715351810843385
seg_33c30d,3.468060044937135
seg_342ce6,7.886524840371093
seg_343571,7.425147905352641
seg_3452b2,4.964264417590453
seg_34a2b8,4.299634651000306
seg_34a8f7,9.03913629661371
seg_34abd2,2.195787407465904
seg_34ef79,3.70767729163308
seg_3506d6,4.171179166674717
seg_35269b,9.183538278356668
seg_355717,2.8457222961618913
seg_355d19,9.124386803963652
seg_35a2d7,9.095874511003887
seg_35b009,5.888897418823933
seg_35b753,5.082968679552783
seg_35ba8f,8.14702893059295
seg_35c587,2.3149336796146947
seg_35dd45,10.594196321962533
seg_35ee83,4.56236187165364
seg_36147d,3.9004137485308874
seg_361f5a,10.779893480020709
seg_3631ec,5.374659858300729
seg_3661de,9.748705331328283
seg_369570,5.9953572120830385
seg_36b77f,9.655456914935215
seg_36e32d,9.689259202242035
seg_3706be,7.884777913738239
seg_373a04,6.475607677069386
seg_373ba6,4.7849484082983995
seg_37608b,5.434484871328548
seg_3761d0,2.897682918035935
seg_37669c,0.5924386942877753
seg_376908,3.2286459870133184
seg_377134,4.6138931410411
seg_3788c5,8.825830169303014
seg_37bf85,2.6900868792487382
seg_37f3fb,3.952276580697205
seg_38001b,2.375443600833575
seg_383b6b,4.497879744921668
seg_383f2e,7.957750526006861
seg_3865bc,3.754753211827838
seg_3878d0,3.8695583527435993
seg_389906,6.232827929325476
seg_38ad16,9.369462129114762
seg_38ee24,6.993256034749077
seg_392019,6.708772981145938
seg_39300d,3.33908457382043
seg_395e0e,9.288856491447847
seg_397983,6.472537471635054
seg_397dc9,9.164697135759445
seg_398a25,5.352003053243182
seg_39a886,6.255242952404382
seg_39ad50,1.6247258938142353
seg_3a1600,4.848158184737437
seg_3a22ac,6.603753439512721
seg_3a80c5,6.777217752560464
seg_3a8a76,2.786325258686939
seg_3aca44,2.8375132021743488
seg_3adb1a,4.416705108106956
seg_3ae4d9,2.609916436544241
seg_3af649,6.131839799311615
seg_3b2013,2.139873368064702
seg_3b30fd,10.919243611166126
seg_3b4414,3.671874077377238
seg_3b7175,5.141167619134119
seg_3b7724,9.599178054726709
seg_3b95d2,8.31458171603647
seg_3b95dc,4.41711247247457
seg_3ba485,8.842336034009097
seg_3bb90a,5.145512663764342
seg_3bc9ed,7.0478815626073485
seg_3bd97e,8.127114900675807
seg_3bf9ac,3.07992529158692
seg_3bfcf6,4.714805212591297
seg_3c3ddf,2.546857769336281
seg_3c4106,4.124384924368408
seg_3c64fb,6.067872868806102
seg_3c8545,2.420424471836868
seg_3cba49,7.401755677227224
seg_3cbccf,4.911537763885855
seg_3ce740,7.9029611990398605
seg_3cfb73,9.425213371367985
seg_3d059a,4.805710610180925
seg_3d06cc,6.348214426678042
seg_3d19fc,3.921597109209254
seg_3d1cb3,5.594979694454757
seg_3d1f2e,4.89700516881456
seg_3d581c,2.187078112152565
seg_3d6aac,6.292089198199774
seg_3d6e79,5.457467451659704
seg_3d9aa0,4.56928273934016
seg_3db0a8,2.7736043373430297
seg_3e00cd,9.16955357434379
seg_3e55d5,3.574833690226126
seg_3e87b4,2.066886858802551
seg_3ec967,4.98201250447085
seg_3edf51,4.5482982552819475
seg_3f2086,9.402547373472917
seg_3f3689,3.855153313489009
seg_3f3983,6.684516221026994
seg_3f5be6,4.292728749639941
seg_3f80ef,5.046790763587921
seg_3f99c8,2.6166077420771776
seg_3fb24b,5.205658250284365
seg_3fc7ca,8.82757173021674
seg_3fdae0,5.0979513931021945
seg_407b2b,6.05642160393364
seg_40b3aa,1.9036461357276482
seg_40f810,3.208122303537163
seg_411225,3.769135666256795
seg_414d0f,6.044818572391364
seg_4185b3,4.876797265338908
seg_419531,6.777942766505521
seg_419b2a,7.1375128300728345
seg_41a267,8.718735280403623
seg_41aadc,6.285304874726345
seg_41ab7e,6.952297230616277
seg_41be18,6.364847021663346
seg_41be7d,5.694127273248857
seg_41f45e,6.80814975148961
seg_420bcc,5.919044865369737
seg_420d4e,6.4538357411445295
seg_421a96,6.118443037937849
seg_421da1,7.631343204225971
seg_423ebe,6.118756806765759
seg_425462,5.057591468650045
seg_42648c,4.538508490144732
seg_4280d9,9.625978373068069
seg_428d66,4.011696849167856
seg_42c4c9,2.9359228149575056
seg_42e7e8,4.991178723201326
seg_42ff14,8.915515065877482
seg_430e66,5.627058115015318
seg_43383f,4.941457488725906
seg_434c96,2.7032481031754223
seg_43597f,5.08702036392471
seg_43c6f4,6.978705485250921
seg_440106,8.450731649325434
seg_4401d8,7.046076394266804
seg_441c6d,8.61887443697841
seg_4435bd,4.956463893050844
seg_447972,4.546244402649549
seg_447b8b,9.61268999166132
seg_447cb3,8.119497397660725
seg_44d3ca,4.718216748890043
seg_455b16,4.954957484699458
seg_456149,8.045063740019053
seg_457234,10.904888404921463
seg_45838b,5.681050959580522
seg_4587bb,7.3387851606660846
seg_45a8a9,3.820197798268336
seg_45b051,1.5901403711271356
seg_45e062,8.643353932672976
seg_45e4ed,4.441971370185614
seg_45e7ad,2.7802860183320237
seg_46012e,9.073747348437761
seg_460436,8.064229275311998
seg_461ab5,5.748234763399074
seg_461b63,4.839322133459486
seg_462c1d,6.959687169441635
seg_464839,5.4923196667614675
seg_468bc9,9.43438317421861
seg_468fdb,3.978766317863532
seg_46a42b,4.998620429162129
seg_46b84d,7.475638928192719
seg_46c6d3,7.548070221685594
seg_46dd7c,4.51397501440695
seg_4729a7,3.878359615556853
seg_4743ab,8.154762307013383
seg_4743fa,9.99392735654663
seg_476700,4.398935213092548
seg_476bdb,3.3902889052625964
seg_477c83,4.707708945895314
seg_478327,5.699579265866394
seg_47a48f,6.690229452544291
seg_47d374,3.657484767566279
seg_47fed6,9.160040845982898
seg_482745,5.099114929746822
seg_4848e3,6.009800826882568
seg_484901,4.322328643162084
seg_486973,5.901020293089026
seg_48a4b3,7.774662694028229
seg_48a80c,3.6658203553811473
seg_48b545,7.391746845979953
seg_48feba,5.252735909422734
seg_490092,9.965303817047756
seg_490d6e,5.0545273131770525
seg_492dc6,5.670542449797275
seg_49322d,7.939597878148716
seg_49336f,4.019378742063168
seg_495573,8.87995771921131
seg_496d07,3.2227447865432355
seg_496dad,3.7366519714157844
seg_49b0cb,11.208371354413117
seg_49d84b,5.8703893257733455
seg_49fdf0,8.573256797001259
seg_4a2525,10.118199741214323
seg_4a6096,2.618214396881954
seg_4a719c,4.297460545038954
seg_4a91a9,3.7968891857826623
seg_4a9e6b,7.116630436446976
seg_4a9e8d,7.298706967420038
seg_4ab7bf,9.268014414578458
seg_4abc29,2.87943347591066
seg_4acc4b,4.424398044068546
seg_4ad5a2,6.400044709663325
seg_4ad674,5.667785530368624
seg_4adeda,9.477370243339582
seg_4ae37c,8.555853185174374
seg_4ae712,8.889353474228006
seg_4b0839,1.8666290883788172
seg_4b4c91,8.287364371209355
seg_4b4ffb,3.808159479516095
seg_4b8044,5.864737790086025
seg_4b953a,3.77171996317667
seg_4ba3d1,6.9375963743983355
seg_4c067a,5.765766831577013
seg_4c12b2,3.0145024432669425
seg_4c18e2,2.2630969049153182
seg_4c3a2b,9.209522682839118
seg_4c4995,6.225019156723397
seg_4c65e6,9.485089005113025
seg_4c8db6,7.709412109089376
seg_4ca6de,6.574101828332234
seg_4cb0d7,5.551976803467225
seg_4cb9c6,4.333223744074137
seg_4ce234,5.417560847841876
seg_4d0008,5.142916923206066
seg_4d0041,8.52204538450001
seg_4d0c45,6.551049725964002
seg_4d18f4,2.3063107442374284
seg_4d2671,6.144309177787998
seg_4d53c2,9.1829818856193
seg_4d5a4a,3.699069672176631
seg_4d7c56,5.964259227235262
seg_4d8f0f,4.566895279883779
seg_4db886,6.91645190614633
seg_4db997,2.352345219653391
seg_4dbbd1,7.3976040778277845
seg_4ddddc,7.2190095788538455
seg_4dfa03,1.7820527217192699
seg_4e0c4a,8.748829833938865
seg_4e2c66,2.624715260056563
seg_4e3bd7,2.363142716978335
seg_4e627b,5.005303367675724
seg_4e9646,6.464890241645941
seg_4ea3fa,6.129106262598372
seg_4ea81c,4.022102394957988
seg_4eb127,2.6899195213594607
seg_4eeaef,3.2367880656686796
seg_4eef28,9.546561644823706
seg_4f48b4,2.038566548686914
seg_4f5931,7.898385630664965
seg_4f76a2,4.925414137184437
seg_4f83a3,7.320281812026755
seg_4fa87d,9.157843506114018
seg_4fce5b,4.615464842495969
seg_4fd191,5.017367610070848
seg_500108,4.485584133898614
seg_5009d9,3.4909439172016623
seg_500c80,6.2315724827841255
seg_502fab,7.840163285651848
seg_507065,3.2278316599656263
seg_5090fa,7.4492493460434845
seg_509d55,4.275278171152319
seg_50a667,4.0307655295806875
seg_50b048,6.040471563179205
seg_50e270,7.353411204930277
seg_511d25,8.801579987116126
seg_512b3e,8.193881719507253
seg_514543,5.196771539325567
seg_5147e1,5.770210068267005
seg_514b85,9.336111283585158
seg_5165a4,7.260202509697239
seg_517345,5.926532763396231
seg_517425,2.80103362094603
seg_51865e,3.985223652205509
seg_518b1e,3.3232584539076457
seg_51b68c,9.115590611625603
seg_51f0a2,2.7537520790831502
seg_51f6fd,6.725618782633811
seg_521a88,7.705703393600219
seg_523945,1.9304942606293995
seg_524b39,5.34051992339114
seg_5254ce,10.681529703452389
seg_5255c0,7.220827797591016
seg_52636c,2.1345811810083903
seg_529be4,5.117767515892849
seg_529c99,4.468700654995828
seg_52c139,8.98047718357659
seg_530a02,10.6196148105997
seg_53103b,2.8956022917444506
seg_5311d1,4.610370925143249
seg_533613,8.440706343070527
seg_53498a,3.7391016505974277
seg_53a557,4.919257254626966
seg_53a5fd,5.8550893660150685
seg_53bdf5,9.469432581667547
seg_53caf1,9.065810573821611
seg_53d818,4.077158511777281
seg_53e645,5.652352410851579
seg_53fa13,3.432270604510677
seg_5407b0,4.011551474440866
seg_5445bc,4.824119059042342
seg_54490e,8.331883326373939
seg_545fda,8.694177958660008
seg_5467c8,7.631939029358338
seg_546864,9.428654866818203
seg_5470ca,5.686565789349798
seg_5495ca,3.922259568316162
seg_54af0d,3.5588332128214653
seg_54b0ee,6.616015181137848
seg_54d0f3,3.9576218812964985
seg_55239a,3.143326581521271
seg_552b8e,9.036024773981618
seg_5559d9,1.8561591260670625
seg_555f63,2.077704171181779
seg_5597ed,4.75030149601943
seg_55a0c3,3.90951473192408
seg_55a9a4,6.38178048577071
seg_55b566,2.2120299103133734
seg_55d50b,3.991955182937736
seg_561cf4,2.9661469756013346
seg_563059,6.243954003219536
seg_5639b3,5.933851154480881
seg_566efe,8.821166395881068
seg_56e3e7,10.49188124562537
seg_56e6f1,6.339967590499248
seg_56ebc7,3.8602089390105703
seg_570a20,4.090794339222135
seg_570d69,8.25519923461412
seg_572172,6.1712551938810325
seg_5759c9,7.4241979727637695
seg_5765b6,8.038074376241862
seg_578e84,9.143423773619935
seg_57908c,4.124756897635702
seg_57b6c0,5.9836289925156
seg_57dd68,9.075926602050789
seg_57ea44,3.1959216848866356
seg_580b65,6.969472699987284
seg_581fac,3.478283773982491
seg_585872,7.96788458314622
seg_586726,2.826316391733132
seg_586c0f,5.184594295671914
seg_5887a8,10.397293443707484
seg_588f61,2.8980707549725255
seg_58d52d,8.726599162312276
seg_58e74b,2.839084298652345
seg_58e9f9,9.96699439472
seg_58ea74,8.69125332357428
seg_59058a,1.6952400580764115
seg_590fa5,4.659719571712552
seg_591954,8.831022301221656
seg_5924f5,4.446312901071909
seg_592807,7.596147021454877
seg_593c34,4.849558971972441
seg_5965d8,3.977991617585039
seg_596ae3,7.302365895010486
seg_5975f4,5.020864881863443
seg_597bd6,7.359811728786081
seg_59818b,6.777195896149319
seg_59cd7d,2.7029804407624987
seg_59cfdb,8.474733408874654
seg_59d484,5.800390661015861
seg_59de0b,1.8541486431365306
seg_59e1db,7.714841807508654
seg_59eb97,4.287551516844358
seg_5a0479,5.563808433377133
seg_5a1adb,4.100942199221458
seg_5a242e,6.763904362355651
seg_5a67b5,8.782018343727364
seg_5a947e,4.75244883484021
seg_5abfdd,5.277510572560271
seg_5ad847,3.647348665028498
seg_5b392b,2.199803954336091
seg_5b7325,4.038593227342258
seg_5b8c39,3.7745331884332876
seg_5bc0b0,8.368362899867094
seg_5bd9ae,4.904295316674091
seg_5bdb47,3.237602754104108
seg_5bfbf0,3.2564850490623343
seg_5c0929,4.375209655648488
seg_5c1a4d,2.292524838908731
seg_5c530f,5.107347699549056
seg_5c57a8,2.1689514952608597
seg_5c8ae5,4.626506931202783
seg_5c9077,7.319073264018066
seg_5cd98b,4.252580662637511
seg_5cde88,2.3039293188795074
seg_5cfba9,9.883665120950718
seg_5cfdc4,5.258976616776056
seg_5d333e,6.803175721322181
seg_5d45db,6.41060667162934
seg_5d92af,6.913644594440251
seg_5d94b2,2.8573587191002976
seg_5e020f,4.743202736450093
seg_5e0902,3.0768629289140357
seg_5e1bba,6.163370636993787
seg_5e541f,2.4858199987267167
seg_5e635a,3.0839810565038386
seg_5e668a,9.30397955339251
seg_5e70a7,7.0038253170551386
seg_5e7abf,4.230212786474714
seg_5e8ef4,6.664782529517025
seg_5eb380,3.813508738128742
seg_5ec0e3,8.928059600474208
seg_5ed47e,9.575274551535323
seg_5ef47e,5.4606494477344985
seg_5f0a92,4.974862293744705
seg_5f24d3,8.12554829044981
seg_5f352e,2.4936659775143633
seg_5f355e,8.11513761858754
seg_5f46a5,7.155254174502323
seg_5f7fd9,5.631968491411836
seg_5fe414,3.0693570915908315
seg_60277f,3.5418663769437364
seg_6074f9,4.768722158537004
seg_607559,8.057971408300855
seg_60ab20,10.527293620203011
seg_60b696,4.530060526560998
seg_60dacd,9.323021172230614
seg_60df2a,5.90260709378609
seg_610379,5.542804315993587
seg_61219c,5.3137507940725826
seg_613702,5.017435330670994
seg_614b50,1.6768092932883323
seg_6153ca,8.997175885294428
seg_6167f0,5.260893524321855
seg_616c8b,9.94002592923153
seg_61b50d,5.184382013888779
seg_61f504,4.305375576898955
seg_620ee4,5.819326338356843
seg_622e9d,3.1714533031757206
seg_62331a,4.99301684718731
seg_6262c4,8.893721094289237
seg_629822,4.831889021918456
seg_62a403,10.536086776406723
seg_62c582,3.2706522522130035
seg_63130f,9.928643653028615
seg_633651,5.614395304103935
seg_634180,3.9288036897690297
seg_634f05,3.0899561251889995
seg_635770,7.530315014984704
seg_63582a,8.838265683887705
seg_63c13d,5.752675079985161
seg_63c518,3.3024306811804554
seg_63c8e4,9.816021915409648
seg_63c983,3.9053996443545396
seg_63c9a3,4.989855279410052
seg_63d651,4.661916199574999
seg_6422d1,7.629197122756357
seg_643d1f,5.645162146535567
seg_643f86,9.126630181992276
seg_64bcb9,9.396255411157693
seg_64be5d,8.912720511154827
seg_64be91,6.40003574484523
seg_64daae,1.9925647666815665
seg_64dcf0,5.431611196436402
seg_64f8dc,5.513450353608601
seg_650de2,5.673084708747842
seg_651808,3.320962627108928
seg_652cc2,5.400677642938558
seg_655780,4.10072120587618
seg_655ad6,7.450555084386955
seg_655cae,2.914413162890915
seg_658bf4,2.2711994992394797
seg_659ff8,5.68941828079161
seg_65b962,5.007850589055754
seg_65c4e1,7.36375508613712
seg_65ef95,4.865567968695926
seg_65f01e,8.969419189079122
seg_65fbac,9.320336831073194
seg_660fe1,3.442877891772534
seg_660fef,6.906385914685743
seg_661629,2.8328495409011714
seg_666056,4.97642328321567
seg_6681ee,1.6528530020869014
seg_66820a,3.0349330227827505
seg_6696d0,5.17033425836259
seg_66b7c3,7.085193564157635
seg_66e45a,5.710228062931402
seg_66ed4d,2.98356242634762
seg_670bde,5.2510714909914515
seg_67330f,6.39195241671562
seg_673c60,3.406636595448955
seg_67599b,6.619258983810625
seg_679dd2,6.884474721565739
seg_67aa76,5.22595986090885
seg_68102c,9.404686758992455
seg_683ddf,2.7214274834665337
seg_686edc,5.994537837290518
seg_687a5c,2.5654820488675254
seg_68a484,8.703592979288182
seg_68da94,3.407667258032982
seg_691a72,7.025187939575224
seg_692e7a,8.102598336204803
seg_6951e0,4.488875178449946
seg_695380,3.0206749514285045
seg_696621,5.0051896784331085
seg_6968c8,4.2396770528102445
seg_69787a,6.919757601718038
seg_69a230,4.577424634346734
seg_69a53e,5.842900682717467
seg_69dbad,6.564935562342847
seg_6a05e7,5.026332524765486
seg_6a116b,4.497357136998565
seg_6a26de,3.5734233145454484
seg_6a45a0,5.096500311978989
seg_6a4ad1,9.880100930039724
seg_6ab188,6.134029560446878
seg_6ac67a,3.996230533021774
seg_6ac82a,2.9384640105757707
seg_6ae32d,4.481031936051455
seg_6b0107,7.267053997529419
seg_6b2ce0,6.0963069846327205
seg_6b3a9d,3.7613422692456
seg_6b4e04,8.911112617814288
seg_6b536d,3.363376749313804
seg_6b9511,8.014479268944962
seg_6b9d02,4.828806855110223
seg_6be48e,3.5820296833333023
seg_6c292b,6.747466256938017
seg_6c309f,5.485047118968355
seg_6c34c2,3.675925373572494
seg_6c8a45,5.373743520037511
seg_6c909f,4.2304832471221125
seg_6cfb76,4.715928873771176
seg_6d01a3,6.717590368708044
seg_6d35cd,1.9961253139176918
seg_6d36a1,10.502717679898758
seg_6d4109,6.469681359624195
seg_6d4fa6,4.752964223892523
seg_6d6fad,4.523231316387296
seg_6da1ff,5.9935328609100615
seg_6dac5d,11.21627290764195
seg_6dd0fc,4.9070240278430886
seg_6de4fd,9.392397771839974
seg_6de935,10.26810592320262
seg_6df48e,10.281152389403381
seg_6dfab7,3.6124732888189093
seg_6e12ae,5.88092588027258
seg_6e12ee,2.998145323679658
seg_6e1ee7,8.692995203301507
seg_6e572a,4.453471190488463
seg_6e5a38,3.8299528298746255
seg_6e7f73,8.737420951566742
seg_6e98aa,3.9788771318276073
seg_6eb146,5.670457751085678
seg_6ed49a,7.849661230720482
seg_6edcb8,6.436108502362464
seg_6eedcc,9.48581000123448
seg_6f17de,3.622393594023409
seg_6f2222,4.501969096053809
seg_6f3d90,6.271079341832241
seg_6f60b2,3.5787101071688987
seg_6f650f,9.335463912002538
seg_6f9a98,7.413659295481416
seg_6fb17f,4.440179650507602
seg_6fc3ef,8.707373226162176
seg_6fc8b3,6.22320548475418
seg_6fd5bb,9.492493665004414
seg_7012af,9.230350023286471
seg_7020c5,7.251509810506616
seg_702e03,4.596310465826884
seg_703cea,6.195261679572859
seg_705463,3.697546495822195
seg_708349,9.945786455262258
seg_70991d,5.275928826360725
seg_709b6a,9.139157695914967
seg_709d08,5.99457895924807
seg_70a60e,5.507507456666907
seg_70b375,6.61693437859442
seg_70be4d,9.478767800051921
seg_70e891,3.9138430624144527
seg_70edf5,7.9269347951901725
seg_70fb30,9.421604168975193
seg_7120ac,5.98778319413864
seg_71238c,8.395874856866516
seg_71348a,3.0881403581394813
seg_715e2c,7.808592464155199
seg_715ff6,8.288125837890687
seg_7189ca,7.267866746784154
seg_718b53,3.316585698181164
seg_71936f,2.0887134007249517
seg_71b4e0,3.2533877910715896
seg_71b975,4.2437719265760245
seg_71c9e9,3.2396848771675946
seg_71f571,3.6724952618129425
seg_7211f1,6.817817942901433
seg_724df9,-0.03246607280514793
seg_725772,6.638060631056041
seg_725e84,1.9172614380364736
seg_727fc7,2.994007074103028
seg_72858d,3.695834819494803
seg_72859b,3.9631658651619803
seg_72aba8,5.787016033649489
seg_72b68c,9.905969018066218
seg_72c307,7.282531520889319
seg_72ebda,6.78330170170924
seg_72f40a,7.490160575059196
seg_730ebe,6.087741559495331
seg_734a88,7.882720958064842
seg_73565e,5.023388054025856
seg_735cdd,3.6944325026103
seg_73858d,9.160341958748388
seg_738be6,2.6893719874523567
seg_739643,6.371078619509877
seg_739679,2.1670487085883825
seg_739856,10.683184343858008
seg_739fb0,2.9392765761768893
seg_73ab4a,3.562605439132115
seg_73b0f7,9.156420316611012
seg_740837,2.739084725881095
seg_741fc1,7.844911983325744
seg_74235f,4.61178838747035
seg_7428e7,6.904184533521519
seg_743775,6.591700274751101
seg_74537f,5.520207827153552
seg_746d1d,4.825473538993213
seg_7480f4,7.933831431395159
seg_74b264,3.9125636775787385
seg_74b3bd,6.293123594562903
seg_74ce61,7.191698588765281
seg_74d58a,8.227567967456858
seg_74d8cc,5.30763946471301
seg_74dda9,7.194910731844239
seg_74f330,3.9253234170934443
seg_74fcfc,9.069214729397206
seg_74ffde,6.464889127063642
seg_750244,5.764832116254153
seg_750c93,2.4069439544169136
seg_750d20,5.8211266807120605
seg_750e7e,7.45590415326307
seg_75211e,6.336500500661014
seg_753190,7.197202653385627
seg_753ba6,4.16964189636021
seg_7540f3,6.100087304755996
seg_75438e,5.524178549121432
seg_755d50,4.050518643443007
seg_75654d,3.722044408565378
seg_758374,2.33495982197613
seg_758ca4,2.805030296584045
seg_759fb1,5.613706693492052
seg_75a878,5.068194810453944
seg_75c34b,4.210898757572748
seg_75cd6a,4.3301242828170095
seg_75dc3e,5.000177706710369
seg_75e669,2.0246913294508655
seg_75e93c,4.622666754078136
seg_75eb90,8.303541537863229
seg_75ffc9,6.015995717506586
seg_760d70,5.078577424073977
seg_76106f,8.601700577170222
seg_762188,8.494936646211942
seg_762be4,4.454659075677498
seg_7630c5,10.782309955588609
seg_766e42,4.26449877051503
seg_76b76f,11.203841349788389
seg_76c2fa,3.064738694075565
seg_76d16c,5.679604548368458
seg_76e914,5.395262229415259
seg_76f1af,2.8024486578174637
seg_76f3f2,8.700787298846056
seg_76f76d,6.464885649482379
seg_774ad2,5.165380099121348
seg_77bf79,4.880528743519951
seg_77c546,2.005755448994986
seg_77db7b,8.991067127037097
seg_77dbe7,4.520013024356254
seg_77df38,7.295254672491936
seg_77e7bf,4.99643672537419
seg_77ea14,5.010462557460407
seg_77f9e3,2.1843042355943667
seg_77fe77,6.171144927078183
seg_7848f8,0.2602663958564555
seg_7862ed,4.237025974778693
seg_786ff6,7.1845866693513045
seg_78852d,5.599469050241968
seg_78addc,10.305882617406434
seg_78d817,3.8524345721213953
seg_78db0a,7.941277566205326
seg_78ded2,2.178167601076054
seg_78fc4b,6.847780649071931
seg_790108,6.99073409698833
seg_7949da,3.3456084869648324
seg_79c47a,2.8796900659343954
seg_79dc90,8.863253269699221
seg_79e301,4.519757031607098
seg_7a09ec,6.239544352507089
seg_7a521c,4.58627732039942
seg_7a5243,4.378233706313076
seg_7a9228,3.6134188259947284
seg_7a9f2b,0.9231093541822287
seg_7aeca4,7.778845773143308
seg_7b0936,10.150573203524761
seg_7b2994,3.1540798537991197
seg_7b3017,11.300539993605389
seg_7b5f90,6.91952962482303
seg_7bb771,3.8442461008160813
seg_7bec10,10.028754064617026
seg_7bf143,2.897109467378392
seg_7c0376,2.248979507944009
seg_7c10c1,3.4101517714366594
seg_7c2beb,8.353161160679932
seg_7c2c48,3.9758058303873156
seg_7c6c31,7.811582509784626
seg_7c88d1,4.134697313387941
seg_7c9433,5.108988549873377
seg_7cb417,3.450113700666701
seg_7cbb45,4.797987677497839
seg_7cd6b1,4.312184508740962
seg_7cdfe5,4.145065466516384
seg_7ce9cb,4.880078982370698
seg_7cef95,8.261505007158304
seg_7d17eb,9.884893866956629
seg_7d2535,2.6459281808193325
seg_7d2e57,7.093269422390291
seg_7d65c7,10.07360073032626
seg_7d718e,10.173838857359115
seg_7d88e3,9.296495788501149
seg_7d994f,3.4126175945816026
seg_7ddc30,10.224398837903317
seg_7df3dd,5.549990599397468
seg_7e3b3e,4.644200351501018
seg_7e9eb7,9.915750012279887
seg_7eb108,10.064986266826878
seg_7ebdc3,4.089698502613588
seg_7ed2dd,4.857378437255049
seg_7ef97b,4.466847523326512
seg_7efdd5,6.161414739291137
seg_7f3ab0,4.99615202322271
seg_7f5b6f,9.462190003978375
seg_7f786b,5.682385515259745
seg_7f93b2,2.3380921044404577
seg_7f9b3a,6.231657496715211
seg_7fa6ec,0.060522001555307015
seg_7fac26,8.35444360138005
seg_7fd3a3,4.822728954870641
seg_7fd6b7,8.323715796500977
seg_80211c,9.428471428192697
seg_804fb5,6.187793968691965
seg_80622d,6.748354479620536
seg_807901,5.087840559177545
seg_80b9b4,6.335647335167879
seg_80fb86,5.785813966436423
seg_812962,4.464448495856214
seg_812a50,6.162967631842874
seg_813aab,2.251346572426887
seg_814b1f,1.533595554207019
seg_816b7a,2.129543520326429
seg_818382,5.993620838807548
seg_81a8ea,8.573040593550346
seg_81bebd,8.367539600507401
seg_81c1a6,8.957271148128804
seg_81c432,4.635567580024603
seg_81f798,3.2785017461321058
seg_8200d2,5.27562809807583
seg_82303e,3.7330115582093852
seg_82316b,4.884424174106268
seg_8244bf,5.594254743532427
seg_82456a,3.0495477148309145
seg_826208,7.17428372503006
seg_827804,4.941971405968227
seg_827a21,5.138623540582527
seg_827c07,4.399360489588441
seg_82c138,6.481302274266359
seg_82ce27,2.8716576470581625
seg_82d7b6,4.047164856785379
seg_830cff,5.512482036094416
seg_8310ea,6.713359337890237
seg_8324a4,6.660830136381182
seg_8328f5,4.991101944832608
seg_832a4d,5.31530056897122
seg_8344ee,5.228057853151973
seg_8353f5,9.759281642345295
seg_836aac,3.8176872319768784
seg_836ef0,2.030905414557222
seg_83bef8,5.113353704292645
seg_83cb2c,4.294646426014156
seg_83dc2e,9.516981345079342
seg_83ef67,9.29369168515505
seg_83f476,4.875390993149017
seg_83f89e,7.837561034326351
seg_83f928,10.199302353237213
seg_8456d3,2.5454954669225307
seg_845a2a,12.101568123714472
seg_8472f3,8.94571770882782
seg_848695,4.533096379480117
seg_84a65d,10.490409458297332
seg_84b9d9,4.381074393125659
seg_84c7fb,4.394504053351493
seg_84fc12,7.8005171091868934
seg_8509db,2.300622065044948
seg_850d95,3.4989081218950115
seg_8515fd,4.287710412606986
seg_853302,7.008518051455976
seg_854d91,9.737915293528896
seg_857304,4.78643069243754
seg_85762d,6.600520083636282
seg_8599ec,3.8198329588879387
seg_85c1c0,3.902078117591982
seg_85e90e,8.580636329891458
seg_85e9c6,8.548928533057918
seg_85fb0a,1.998989065986768
seg_864fcf,4.173125118468
seg_8658b3,7.839144473213899
seg_86720f,7.958998880438339
seg_8681aa,7.120526847826904
seg_86892f,2.143964382077685
seg_868c85,6.69368762673083
seg_86cfe9,9.497059374034361
seg_86d847,8.850976690162103
seg_86e874,2.4316622106237493
seg_87232d,6.049795180889461
seg_876904,7.461100666183896
seg_8773cf,2.268421108045909
seg_8777bd,10.327824810938882
seg_8785e2,5.409884983161295
seg_878d2c,8.09332773926561
seg_87a616,2.9206596926662747
seg_87a67a,5.142721976060832
seg_87e4e8,3.462727183051137
seg_87f6c8,7.8850058679709285
seg_8826f4,4.472699840448124
seg_885f53,6.9394979956351115
seg_8866f0,2.4465475311700313
seg_88a81d,4.784457274426374
seg_88b289,9.439781438916626
seg_890181,6.133347654311084
seg_89791c,5.395428089871626
seg_89885a,4.966649855615875
seg_899bf0,3.7998273481753273
seg_89b090,1.9592555085980237
seg_89d8a0,5.176175682388048
seg_89e207,5.946873067245016
seg_89eed6,3.7255161934232763
seg_89f975,3.2201668630595033
seg_8a3306,5.6349934361528735
seg_8a41bf,2.809233897140097
seg_8a6b0e,2.1990312297195347
seg_8a7201,4.4181174240129
seg_8a8220,6.206458404566572
seg_8a8375,8.21750070542658
seg_8ab3a7,2.212913004874638
seg_8ae847,6.047123516301932
seg_8aeb99,8.257728889122518
seg_8b39c4,8.631004663999205
seg_8b798b,9.899007321151057
seg_8baeab,6.006598918319536
seg_8bc20c,2.6050980864178053
seg_8bde47,8.461698715073716
seg_8be2da,6.590453174399837
seg_8be76c,2.239356938428951
seg_8bec6f,5.238511522084912
seg_8bf229,6.6319982761260885
seg_8c0114,4.84160107870799
seg_8c1760,9.223131422128818
seg_8c1cca,3.9853287634030634
seg_8c1e7d,2.613212729088392
seg_8c341c,7.824238678361423
seg_8c6d4e,2.7327344247157583
seg_8c6e34,1.5418912052037694
seg_8cd159,4.017238690861028
seg_8cdf83,4.985124174602909
seg_8ce632,5.299365595281429
seg_8cf573,5.8073271295764215
seg_8d030a,5.730479032077346
seg_8d135f,7.82347273757547
seg_8d3a9d,6.402414889792508
seg_8d4435,5.370634922992037
seg_8d4965,6.117128716657615
seg_8d5113,4.735458270857467
seg_8d6578,4.122293949213299
seg_8d6a7d,3.608722917273553
seg_8da61a,0.35729084631195757
seg_8db6f0,6.931033812436761
seg_8dcf3c,8.74159263437743
seg_8dd2ab,1.4371700563398062
seg_8dd3ba,4.844909686426024
seg_8dfc7e,2.6438104002954645
seg_8dfd7a,2.467323313101339
seg_8e5704,7.542423701800834
seg_8e6a3f,7.6790658635320455
seg_8e7194,3.8635592948434407
seg_8e7fca,3.198056152452628
seg_8ebdea,8.231891525795273
seg_8f1127,2.220056437134735
seg_8f25b0,9.560664949450487
seg_8f3247,3.4437686271434895
seg_8f3dfe,4.957498431275955
seg_8f4654,5.806734664085914
seg_8f4781,4.541117002072538
seg_8f5589,7.099900792867032
seg_8f592b,8.487555300513154
seg_8f6284,4.167881273204411
seg_8fb0d0,5.754924894256298
seg_8fb29e,9.876853286902461
seg_8fb828,9.550097761665391
seg_8fc754,8.573081020356303
seg_8fd465,3.1435050475553727
seg_902074,9.261239645132578
seg_902bc1,6.554147203626623
seg_903aba,7.948131952820505
seg_907c52,5.2498644983752545
seg_90a0be,2.107728173883377
seg_90b174,3.8316403539441115
seg_90bf60,6.5342425750801905
seg_90c258,8.970814096790967
seg_90e904,2.23974209364913
seg_90ec68,10.1440221577396
seg_90ef18,8.735815964367967
seg_911066,5.124803476004443
seg_9122aa,2.7329675732313494
seg_913ffc,5.650611738437201
seg_914a62,4.367915204006906
seg_91596c,7.286957307791207
seg_915b3e,4.637565997626963
seg_91607c,5.392549299690286
seg_919a6a,3.9563902779065456
seg_919c5c,4.639184871968784
seg_91bf8c,4.093605040862487
seg_91cff2,4.028778280183604
seg_91eaeb,6.238388934858605
seg_91f512,4.132196217507785
seg_91f664,2.6244222427165287
seg_91fc29,3.385391644036784
seg_920132,9.485348256015268
seg_92092a,4.188579105474303
seg_922914,6.818595604308765
seg_922990,5.044722460238759
seg_92310f,4.094599894898997
seg_929ded,6.089527567636017
seg_92a5f1,6.081452824355498
seg_92af10,8.712631261288996
seg_92b095,3.3599773882664694
seg_92bd37,5.876575665796571
seg_92be9f,6.717310391017596
seg_931244,10.002621482673096
seg_93211c,6.937383294549433
seg_932828,9.257428066311515
seg_934087,5.215688668243974
seg_939f5c,5.886958529571821
seg_93d864,4.965251510222509
seg_93f935,5.016653599888382
seg_941759,8.009167005074582
seg_943de0,9.5576522379672
seg_944c98,3.5296180811023996
seg_945bc8,5.059380708843355
seg_946d71,13.12394111846654
seg_946d9a,5.617751887630918
seg_947700,5.276057110267512
seg_9485c0,5.248426389285008
seg_94a133,4.854788747278997
seg_94aa0a,6.1470793416125895
seg_94c48c,6.595296647695481
seg_94d150,3.1757131039953475
seg_94d573,8.256026239236801
seg_94ecad,9.084956329844045
seg_950048,3.8507792562041048
seg_952faa,3.7470737360160835
seg_95357d,4.2292836669745455
seg_95644e,6.116236288325467
seg_957ece,3.311848577716943
seg_95b321,2.9088577456426
seg_95f45e,8.475362849695937
seg_961d02,4.2858384913398115
seg_961ddf,4.85201164980395
seg_9626a4,2.2036404769705893
seg_96642e,4.735241828358771
seg_966f3d,2.7315188935417005
seg_967ae4,8.321609930381985
seg_96cd5d,5.108623703337798
seg_96dab2,9.43933104395551
seg_96db5e,4.914595582377967
seg_96fa35,4.784875240362216
seg_970b35,5.375714692398166
seg_970e86,9.62888381696931
seg_974049,4.356801758191978
seg_9757ac,10.943309257054386
seg_979a8f,3.5536573639554696
seg_97a161,5.906200251885882
seg_97ad82,8.266011092915017
seg_97d9ed,8.371526735022373
seg_97e4a9,10.123471507879856
seg_9802c3,6.219617028330209
seg_9825e0,4.9293551746344715
seg_983778,9.909149254363104
seg_986976,6.726561826698794
seg_986b6e,10.49491402078257
seg_9872f9,5.12885256100184
seg_988e69,2.4940927253152547
seg_98a819,5.681270359318004
seg_98be13,6.467693806732056
seg_98c0b6,4.080720171973216
seg_98c44d,4.625553857106979
seg_98c544,4.030638296965995
seg_98ebaa,8.827682553265042
seg_98f624,5.219804423581909
seg_9940e8,9.861603900665813
seg_996c37,10.212365668978139
seg_99ccbd,4.07857532644468
seg_99f677,5.679308772665701
seg_99f76c,4.9550094446321316
seg_9a1a4f,5.676795813357964
seg_9a1c76,5.606921565079261
seg_9a43ef,7.166507136384184
seg_9a6025,5.1252670727585885
seg_9a74d8,5.779016115321541
seg_9a7c46,6.027543986732095
seg_9a7d1d,2.1923999504378746
seg_9a812d,5.554900167670995
seg_9a81a3,7.153945356904262
seg_9a8a1f,1.9594787832822642
seg_9a9041,6.704707479392604
seg_9a92db,4.357944342771107
seg_9aa6e2,3.556340930060943
seg_9ab405,1.9077056477310128
seg_9ad261,5.742179142781809
seg_9ad925,9.08819888301015
seg_9ae1a1,9.42103232982846
seg_9b0439,5.858257887565845
seg_9b44d2,9.051750769444563
seg_9b7ef8,9.354976535097764
seg_9b7f93,4.498764634483926
seg_9bab11,9.410419450188021
seg_9bd388,6.12864987895739
seg_9bee43,4.027490572125073
seg_9c00d7,10.270332640933985
seg_9c090f,3.1801686670761393
seg_9c2843,2.882707336720409
seg_9c3d6a,8.930644447900814
seg_9c3ef8,6.5164347565561584
seg_9c635d,9.083824481814263
seg_9c6715,3.815773145431357
seg_9c8162,6.769493279456377
seg_9c8bc8,5.756018199564528
seg_9ca72e,5.479441083670735
seg_9caf50,8.594993128043713
seg_9cb464,4.315525862186922
seg_9d1b26,5.010012093010538
seg_9d1dbe,8.544727540361446
seg_9d2528,4.996615343924405
seg_9d3013,9.132366036958274
seg_9d452d,3.3323801910216235
seg_9d57a1,6.317197105542223
seg_9d68cf,4.415686054143409
seg_9d6ff0,4.53928916426593
seg_9d7490,5.9932129489384955
seg_9d79d4,5.3420414605638875
seg_9dcae1,5.871666006021845
seg_9ddc99,6.062628814178402
seg_9dea8d,2.2697822414770368
seg_9df32d,4.267398507197506
seg_9e25e9,5.056397622552283
seg_9e3837,3.8147121618114825
seg_9e61da,1.6887241672727278
seg_9e7dff,3.167024469952709
seg_9e8323,3.9395695745320816
seg_9e8ca4,8.118798913213205
seg_9e962b,6.239589933558731
seg_9ee0aa,9.923276265516701
seg_9f042e,7.708793191724075
seg_9f12c6,3.202868029683165
seg_9f22a0,8.778385379550413
seg_9f4fd4,8.286542996333827
seg_9f57c4,8.523813097771178
seg_9f6315,4.929970222185685
seg_9f7542,7.390385395682655
seg_9fc7c2,4.272362299721797
seg_9fd9b8,4.225285412989377
seg_9fe8b9,6.732057995530326
seg_a00985,6.612245222003354
seg_a009e6,7.416463495030526
seg_a03e6a,4.164490144280958
seg_a05c22,3.9375882099009063
seg_a06228,6.283884928890778
seg_a0646a,2.9245220403147822
seg_a0979e,7.374906027413302
seg_a0a423,2.7320651075045053
seg_a11dd5,4.236847902760532
seg_a12acb,4.527170859104388
seg_a133bc,5.225752142591078
seg_a14212,5.082407089878643
seg_a16a1b,3.0801685808753114
seg_a173d8,3.7341379881770043
seg_a18246,7.8242526508431975
seg_a1a511,2.895602217882635
seg_a1acb2,6.639361483352174
seg_a1b3cc,4.481459998341224
seg_a1d8da,7.746220768430108
seg_a1e5b0,7.298923944040062
seg_a1edc1,4.97736666354751
seg_a247ac,10.526035154325779
seg_a25c46,5.553354168995126
seg_a2986f,7.250397579833591
seg_a2c108,9.898211795697371
seg_a2d47d,5.85355269183562
seg_a2e2c8,2.565271415358586
seg_a2fd8b,5.441737567676072
seg_a31d6e,8.05889024292033
seg_a31fe3,5.470577652278974
seg_a35c82,7.727052959133742
seg_a35e7c,10.591323217214516
seg_a39ebc,5.16696605578201
seg_a39f3b,8.561127553124415
seg_a39fa8,9.573382439907945
seg_a3ab46,4.736907469076128
seg_a3d4d6,2.6418325718166837
seg_a41c2c,7.369169443029911
seg_a4208a,3.5243509576994967
seg_a420d4,4.365108525990447
seg_a436bc,9.437046908466353
seg_a437cb,3.8282918661238297
seg_a45455,5.244798844339255
seg_a47cce,8.347848329904714
seg_a489e1,6.514670228153553
seg_a49ccc,3.9907185556961133
seg_a4ad7c,9.791590906979264
seg_a4e745,9.870735645281066
seg_a50d28,8.992822280132106
seg_a5271e,2.2381799942762535
seg_a53e4c,5.545866964429098
seg_a543e5,6.154546894106997
seg_a55540,9.096023253667912
seg_a55a17,3.4852097022965554
seg_a56c04,4.638603372450269
seg_a58a6e,4.06383964517684
seg_a5934a,10.310673234996193
seg_a5d37f,2.4239982146433485
seg_a5dea6,8.80278464561692
seg_a5f4dd,5.267287732623781
seg_a5fbcc,5.136737259384361
seg_a61e1c,5.3142881530548545
seg_a63573,4.574231408106749
seg_a674d2,7.249949840689998
seg_a68007,3.5245371008229447
seg_a68ffb,7.28751920986747
seg_a69246,9.36025113400796
seg_a6959c,6.274551863647599
seg_a6bf91,6.665405702273267
seg_a6c5cc,1.9871497188241163
seg_a6cd86,4.6536416525290685
seg_a6e801,3.212029849352387
seg_a6e99c,1.2046126013002318
seg_a6eed3,4.293885862439067
seg_a704ee,6.965994845026717
seg_a7561c,3.689676546509043
seg_a7b454,3.59835382813585
seg_a7d0eb,5.234497969268804
seg_a7e49b,5.928510363272268
seg_a80123,4.352986755323299
seg_a802fa,7.683150765955183
seg_a80f6f,6.223461542168458
seg_a82229,8.064567910177201
seg_a84c13,3.965313229292626
seg_a86231,5.944019685837912
seg_a8685e,8.716049057067714
seg_a86a05,5.409944427405581
seg_a87e79,2.8295273319148335
seg_a88097,9.548049704748482
seg_a88dde,9.21688944693613
seg_a8bb2f,4.594403865036206
seg_a8ddf7,4.261907506985182
seg_a8e6df,3.9242031732800324
seg_a8e71a,4.370654878940039
seg_a9089b,2.2751868421352297
seg_a91c03,7.343167609057142
seg_a93a88,7.500583863940611
seg_a96b47,5.119487928705759
seg_a975df,4.248691171788344
seg_a99161,5.00944987649798
seg_a99799,2.453745444248549
seg_a99be9,9.12866268087529
seg_a9a820,3.5747622418474885
seg_a9b957,4.656778336617384
seg_a9f80e,7.93575601319915
seg_aa0180,3.043103470915286
seg_aa1adf,4.261370959929628
seg_aa508a,2.1660160637674277
seg_aa78e0,6.13943877568205
seg_aa7a4b,6.302452679971241
seg_aa98cc,-0.6013309125792667
seg_aa9b8e,6.703696706319585
seg_aaa2ae,2.7236898459977423
seg_aabc52,8.622777296571801
seg_aae025,8.362763483240727
seg_ab001b,2.8571320178195867
seg_ab15ad,7.296792246153277
seg_ab2a78,3.3588342969203406
seg_ab3f14,8.706654313400913
seg_ab4bca,2.313517810969288
seg_ab644e,5.626603653042852
seg_ab70bd,7.51356846085033
seg_ab9654,8.997282916439445
seg_aba501,3.731063705943511
seg_abaad2,7.830751178976503
seg_abb03a,5.3695186494832345
seg_abb06a,6.240329920491493
seg_abc5fd,8.201235221043465
seg_abda04,8.190483744973172
seg_abeca6,10.147448192041717
seg_ac45ae,7.909838846457989
seg_ac5c61,8.668082695166632
seg_ac68bb,1.2013630805142523
seg_ac9de5,2.5939793307354595
seg_acd715,9.564719240977674
seg_acf2f4,7.987787559670117
seg_ad3a44,4.130057011201787
seg_ad3cf0,4.223624959129122
seg_ad591c,8.156000504844577
seg_ad759c,3.0832074103053655
seg_ad82ca,6.93327457742248
seg_ad949a,4.758650233796116
seg_ada42c,4.766441891128193
seg_ada81a,9.167301783011991
seg_ade769,8.014608503006993
seg_adf94a,2.1075058778234563
seg_adf986,5.972302876789132
seg_ae32a6,5.870531769817293
seg_ae3388,7.133472663647179
seg_ae3d92,5.602190889121164
seg_ae42b3,9.76954945036185
seg_ae9626,2.7209651557422574
seg_ae9761,11.434390183118378
seg_aec276,10.06101225248493
seg_aed434,6.4771175603467
seg_aee7c0,6.9978380032104734
seg_aee9bf,3.489779372864139
seg_aeeb31,2.277458331752488
seg_af1650,3.207856319815139
seg_af2472,2.5216547327224736
seg_af6204,5.585675816929221
seg_af703b,8.254915589309274
seg_af959f,7.794823345983745
seg_afa4a1,8.74787342438977
seg_afadfb,6.1947480586928405
seg_afca81,3.0468247122145753
seg_afd665,5.209210624785548
seg_b00f05,7.495142197932442
seg_b02e31,7.750229495526806
seg_b03de5,9.125209423478545
seg_b08e9d,9.213640404065888
seg_b0a794,3.354580528388776
seg_b0bf65,4.081611788405981
seg_b0cf32,9.30827331253106
seg_b0d251,6.1068139067825165
seg_b0f9cd,6.831277640810734
seg_b108c9,5.537069127990307
seg_b13220,3.1592016474650038
seg_b13fb9,4.179211281149858
seg_b197e2,3.2752641427450446
seg_b1a35c,8.129883432509969
seg_b1b95e,2.3904741450687625
seg_b1fea8,4.14465896491126
seg_b20487,9.301871076732187
seg_b21273,5.906178811262402
seg_b23489,2.4329628068416342
seg_b253ee,3.821163433103427
seg_b25dde,1.7522599468963915
seg_b26368,5.727108973587579
seg_b284b2,4.8247774752078225
seg_b291c0,5.131276282009924
seg_b2b29d,7.864453365070224
seg_b2b331,4.574201293237938
seg_b2e045,4.3517120503496205
seg_b31961,5.452599539902246
seg_b32d1d,3.668584470363498
seg_b35174,1.5834606205395154
seg_b36650,3.8869253159500086
seg_b36c8a,2.8696684971651676
seg_b378bc,3.029183139813242
seg_b3883e,6.466601040053551
seg_b3cf21,3.150701942327901
seg_b3d886,3.0638792882262678
seg_b402ac,5.892302113912549
seg_b41d3c,4.927836252262718
seg_b42170,3.6516660068865407
seg_b4402d,9.69977367608746
seg_b44c2e,7.4866871542389495
seg_b47c19,6.214108630619522
seg_b4c040,4.608049542087782
seg_b4cb44,7.681680191965713
seg_b4f7a8,5.1513593259622565
seg_b50239,3.0008664209826446
seg_b51380,10.438601587966101
seg_b51b7c,6.819139269310709
seg_b52710,4.016499416269497
seg_b52add,10.194119430738578
seg_b52dac,5.354485778871801
seg_b54024,3.8574769010103678
seg_b568c6,8.075822278010547
seg_b57e76,5.263528185320595
seg_b5804a,4.831197135468113
seg_b58542,5.733168826179706
seg_b5a447,6.633261134439627
seg_b5aee9,4.824027651408
seg_b6254c,4.375688287225242
seg_b63de1,3.716227774408999
seg_b64c9c,7.4192496021846965
seg_b66b87,2.3905409177613315
seg_b686e5,1.9599671496888553
seg_b687fc,3.591134557642115
seg_b691c5,2.149825388401217
seg_b69455,9.247048633765383
seg_b695b3,4.161829777982181
seg_b6bdaa,7.576812267374804
seg_b6c10d,6.3326580095185
seg_b6cb2b,3.4802439581043343
seg_b72413,7.4695895682587246
seg_b735a5,6.177859256476048
seg_b77bf5,9.438657502637351
seg_b782c7,8.170500146171124
seg_b78883,9.048419429166394
seg_b7a8a1,4.961332538146672
seg_b7b098,4.010863216991199
seg_b7da0a,3.3497494686856903
seg_b7eeb6,5.572899604747494
seg_b80358,8.744911017085542
seg_b80366,7.055081401972623
seg_b80b89,5.23565812441794
seg_b8141c,2.887501259987109
seg_b853c1,8.53992898999633
seg_b853f8,5.850223812598884
seg_b86ce1,4.992341911201411
seg_b8725b,2.66717598124485
seg_b8745c,10.21705740422011
seg_b87cf5,8.792770406054078
seg_b88baa,6.9610766778676805
seg_b89218,9.24822998563598
seg_b89e47,3.0088124981673667
seg_b8b72f,4.658336945209752
seg_b8bb87,10.34179875397856
seg_b8fd73,9.225865369325161
seg_b91011,5.8741841312839504
seg_b917b5,5.996482115674543
seg_b91ae2,5.512670091839933
seg_b9361a,4.8949744768327506
seg_b9365c,3.6228664433311115
seg_b947ae,3.0156058219586566
seg_b95010,3.24290655152883
seg_b95a77,11.508539084029543
seg_b9619c,6.33948154422808
seg_b9ad7f,5.637616917362514
seg_b9bdd7,5.762574935036469
seg_b9d8a0,6.106677093711392
seg_b9de03,5.47641637606019
seg_b9ec4b,2.9873704595929853
seg_ba0485,9.39454165151282
seg_ba1d68,3.793778484632732
seg_ba2c48,4.765419358217934
seg_ba3c47,1.6938039395193418
seg_ba3e74,4.016237449787521
seg_ba4ea3,8.386264457364653
seg_ba5e7e,4.440215143384684
seg_ba83da,5.0733859709959095
seg_ba941e,8.438526077754204
seg_ba98dc,4.028870566547917
seg_ba9dbf,2.9765836216240737
seg_baa745,6.136713044147257
seg_bb171f,6.8564910721985735
seg_bb180c,5.125930340182261
seg_bb2d77,4.0757106899281155
seg_bb5e15,3.492558051477643
seg_bb6904,3.1090662885016447
seg_bb6fcb,5.959571054449005
seg_bb92b1,6.015669147663822
seg_bbb01e,6.677642349858255
seg_bbbc30,5.42967179465193
seg_bbf805,5.035333625254894
seg_bbfd4e,10.657182311309676
seg_bc07c8,2.1109150703115582
seg_bc1d67,7.119475239507497
seg_bc2186,6.237021704346256
seg_bc437b,10.719527473663401
seg_bca500,6.801120289705693
seg_bcc8f1,6.811712131238938
seg_bce23c,7.111985476753924
seg_bce305,5.7965236167268195
seg_bcf2d9,4.909084449883641
seg_bcf6af,6.263580895471778
seg_bcfad6,6.450647662059925
seg_bd00c4,4.792202504663246
seg_bd2b0c,4.875701580868915
seg_bd31bf,5.716309318057933
seg_bd40f2,9.301570661530583
seg_bd4d30,4.559527591500811
seg_bd5022,2.202895741206415
seg_bd629b,5.3904439318873525
seg_bd6f5f,11.56513396416656
seg_bd7109,5.095289583501714
seg_bdae02,9.065123346916453
seg_bdf84b,6.529177697633959
seg_be0cdc,2.478391425831668
seg_be0dfa,7.589736841558855
seg_be19e2,6.758034219560354
seg_be30ce,5.340796766123361
seg_be4612,7.656031665023779
seg_be62ef,6.904379158146844
seg_be65f2,3.0967217665306968
seg_be811d,4.179948353041352
seg_beb650,7.395051548303318
seg_beda44,5.599662597539591
seg_bee792,6.001667906691502
seg_bf1294,2.6775721623848563
seg_bf1430,4.992047901485957
seg_bf1a72,4.910286211486647
seg_bf2d1f,9.38693515376652
seg_bf4bf2,2.1541049450766776
seg_bf4ec0,6.814021732296083
seg_bf58ce,6.829679692952178
seg_bf7224,3.3789930896907423
seg_bfdd14,2.6180438927570067
seg_bfe0b6,8.89002863372671
seg_bff05e,9.411353182258775
seg_bff392,3.2748423066657106
seg_c01a57,2.669778416573768
seg_c01d9a,8.827924347374072
seg_c01f63,8.44009448489381
seg_c0260d,7.207914614608135
seg_c047b7,4.554912000493122
seg_c05a7d,9.490367170578713
seg_c07b7c,3.6669738446217717
seg_c08d36,5.595280306767865
seg_c09a41,4.094250696335852
seg_c0c0ed,6.3198618059589045
seg_c0d7da,4.6207803418014715
seg_c0e1b9,5.437255681491754
seg_c0ea9f,5.893443277157806
seg_c106ca,3.2622960541839827
seg_c10a58,9.047705987130692
seg_c11828,1.84445659070734
seg_c11a4f,3.5324783466220655
seg_c12d7d,9.056448237432054
seg_c146a8,5.6879584368293
seg_c15d21,8.319176199756718
seg_c17817,2.9505454785201177
seg_c179f8,6.270983615752265
seg_c183e4,3.8609898995581493
seg_c186dc,4.594727823798829
seg_c18d5a,4.012169867599417
seg_c1fe9a,4.21993566394577
seg_c20a27,5.261912565396109
seg_c20c06,2.981019445362609
seg_c21723,3.9507964406638316
seg_c21d60,5.687472686452201
seg_c22bd4,9.751401267359883
seg_c23429,3.9636843811141764
seg_c23641,3.4159076490716984
seg_c243a6,2.06679732901238
seg_c24946,5.663422770249733
seg_c25855,8.983403916954746
seg_c267a5,4.178606619933854
seg_c26fb4,4.080556631957308
seg_c27591,3.4031057324298786
seg_c2a0c8,4.44401694709015
seg_c2b8f7,4.101868049309871
seg_c3507f,5.563998513663872
seg_c35940,3.121186183647263
seg_c365de,2.466020700456813
seg_c3836b,4.780788010127706
seg_c3f672,9.247106272956383
seg_c3f8d7,4.503353365346937
seg_c41d1d,5.380427553759326
seg_c42490,3.98798161203083
seg_c42952,4.228853227731902
seg_c44bbc,3.2954906110028523
seg_c46ce6,3.927106923129643
seg_c472cf,8.687972553203492
seg_c47bdc,6.640807637264398
seg_c4af54,4.407819891585397
seg_c5064e,6.570870832225353
seg_c509ff,4.3845719511295504
seg_c522f8,7.839537109613863
seg_c5256d,6.463097197852847
seg_c52ae6,1.7614182204929918
seg_c5325c,9.580371427879726
seg_c550b1,9.75712029599878
seg_c565bd,5.130815803827206
seg_c571ef,5.671099990189434
seg_c588c1,9.024319262190367
seg_c58ca5,6.461232502132624
seg_c5abaa,6.479568119155297
seg_c5c455,2.76647597146357
seg_c5c6ea,6.475304521128396
seg_c5dada,4.013442989269771
seg_c5dee4,1.8561549788364147
seg_c5f986,3.9242232725366586
seg_c5fc3b,10.012864381194738
seg_c5fc87,5.355595664222017
seg_c607eb,3.9235033794460517
seg_c60dca,3.4778040866072875
seg_c60f1d,2.676138951618981
seg_c627fc,8.800835177160899
seg_c62a06,3.871585475842381
seg_c65135,3.742956677143283
seg_c654e7,7.255455023098819
seg_c666dd,5.354296768607705
seg_c671f7,6.860867391406863
seg_c6b514,3.619777908320713
seg_c6c29f,3.261565246401804
seg_c6f0a2,2.175166257523604
seg_c6f533,5.435866624244285
seg_c6f9c2,2.8326771807222655
seg_c703be,7.161688865223474
seg_c70fde,6.644489391769085
seg_c714d0,9.742309520527648
seg_c73df6,3.4335488336033713
seg_c747ad,9.126429061596495
seg_c747b4,3.6996518388464787
seg_c7a3bc,3.627417352114894
seg_c7a401,4.921774750150598
seg_c7a579,7.407922480816783
seg_c7b424,9.499619444912089
seg_c80857,0.5573320789439793
seg_c81e10,6.624975873197924
seg_c81fec,4.37194924340733
seg_c8459f,9.02042239073827
seg_c87c24,3.9358515730541037
seg_c901c0,4.23610714206611
seg_c90be5,8.563367614002559
seg_c9201c,3.9011358957565587
seg_c9481f,5.826563525673444
seg_c94941,3.4942048246513
seg_c9831a,2.7088069759685993
seg_c9e533,6.777382182987644
seg_c9f80a,3.789197386495888
seg_ca2d1b,4.161561287527579
seg_ca407b,5.575367588838549
seg_ca44a8,3.9367705145535927
seg_ca67ee,5.344391580226488
seg_ca6d70,3.069617705959127
seg_ca8389,4.824069118915072
seg_ca88e3,8.695712037895795
seg_ca9e39,4.291548808755406
seg_caa919,5.755357416640594
seg_cacd0a,5.894987129143447
seg_cacd58,4.855998788474581
seg_cb0e21,10.747650014089078
seg_cb806c,4.749840798975266
seg_cbcce9,6.058065053588589
seg_cbfb19,7.518207116680577
seg_cc096e,8.587646708710388
seg_cc2c46,6.311202789915167
seg_cc2e9b,5.240013730056478
seg_cc4199,9.890022032500944
seg_cc4932,9.02163491139288
seg_cc4950,2.8679357846822917
seg_cc667b,4.4087177820764865
seg_cc7a19,4.858882969377133
seg_cc7e39,8.452285358178257
seg_ccdc28,4.128267140541522
seg_cd0691,2.0123479373443622
seg_cd2b34,4.5261188320002885
seg_cd2b53,1.9674967406707164
seg_cd352f,10.622034501792061
seg_cd43b4,4.166769744825427
seg_cd699e,2.766938582112358
seg_cd9f9b,7.6014624162706985
seg_cdadb5,8.807341625911267
seg_cdf88e,2.6884162410340773
seg_ce00bb,5.129504045736406
seg_ce46ba,2.1601552067704595
seg_ce472b,7.525089031611011
seg_ce5520,2.915046899043003
seg_ce5832,4.386437526170554
seg_ce72e2,4.790390691456437
seg_ce7537,2.571924682337297
seg_ce9f59,5.2886947608654395
seg_cea185,3.33481540739699
seg_ceab44,2.0552855354664024
seg_ceb942,1.6795865162997266
seg_cec2f2,7.286308636335325
seg_cecd29,6.504502972661153
seg_ced992,2.6946338184265564
seg_cedf3e,9.179960428583454
seg_cee7d0,9.967253385438042
seg_cf0e43,5.3801347646409186
seg_cf1371,4.059446288851993
seg_cf25d2,3.906033816122334
seg_cf3825,1.054192923968284
seg_cf5764,5.627564453255622
seg_cf646e,6.141700849682086
seg_cf74e8,2.8018082183190103
seg_cf9a49,4.568148811890349
seg_cfed24,3.1557562850059693
seg_cff594,2.278492879323162
seg_d014a3,9.624110739343555
seg_d0598e,2.642817277691591
seg_d062a6,8.860749477091845
seg_d07c62,3.10005831739577
seg_d07ce8,10.22063679820305
seg_d098df,7.607219218073597
seg_d0c280,1.9479725333406317
seg_d0c8e2,3.6004028636361047
seg_d0f262,5.773269161706059
seg_d0f803,4.809797941944753
seg_d1045e,9.27325928017919
seg_d11ca8,8.172771211913581
seg_d14524,5.161230918152482
seg_d146a6,3.6729744781338374
seg_d16534,8.371903883796355
seg_d19980,7.22917441949539
seg_d1a281,5.299588280265743
seg_d1a2b9,3.2831117474110623
seg_d1a8b3,3.155404125943686
seg_d1abaa,10.723605095235232
seg_d1b91e,8.089582045592417
seg_d1ca05,6.59766833554085
seg_d1cb37,7.582945119307965
seg_d1eee8,10.733913779347548
seg_d1fbb8,8.213683272375707
seg_d21066,5.372944085302888
seg_d21eb6,8.45740641395343
seg_d24095,10.368931714705848
seg_d247da,6.597902947511214
seg_d2551a,8.7684789378878
seg_d26f7d,9.531170081413435
seg_d27193,3.73761475178354
seg_d27812,0.5293852234393811
seg_d29a4b,4.108207365583743
seg_d2a533,5.715703300126487
seg_d2ad9a,1.6834272391179756
seg_d2cb02,5.322552695399763
seg_d2db6b,4.410155446948055
seg_d2f588,8.736908855710876
seg_d30a9d,1.8225049914172509
seg_d31583,9.835136412933561
seg_d320f5,2.897212083287041
seg_d328bb,2.679236450460899
seg_d32f71,4.5396590702879855
seg_d32f8a,5.396774320262401
seg_d35274,4.98539668267785
seg_d356ab,4.752021278755663
seg_d35e50,5.761275752293018
seg_d36055,8.913947696069235
seg_d36342,7.523180512726697
seg_d36681,8.048417880417382
seg_d36737,3.9010491782426113
seg_d37b05,9.656982289924429
seg_d39131,8.292896952092239
seg_d398df,6.18270389637175
seg_d3992e,8.375123114945303
seg_d3bb14,2.627117390254707
seg_d3d8fc,3.858890665931547
seg_d3f6b0,3.1912233285462994
seg_d3f967,4.50049236624437
seg_d40bb2,11.470652164394021
seg_d41daa,8.251008656227047
seg_d42c77,6.517627080903139
seg_d44589,5.2917279734813985
seg_d47aba,4.441162139583707
seg_d4c763,5.9083639815792335
seg_d4dec8,6.941317954824887
seg_d4ea17,7.242060465662922
seg_d508db,5.438699824921311
seg_d516e3,7.695586250860298
seg_d56ae2,7.861827947483816
seg_d56d32,6.6914487338600415
seg_d59e4e,4.7249967604784295
seg_d5b100,4.865156537800369
seg_d5d3a1,5.124849327901083
seg_d5dbc1,3.8837175662121686
seg_d5df41,8.042690786004501
seg_d5f344,4.117471335423045
seg_d60d18,4.960916364205505
seg_d62e9c,2.2104488976426317
seg_d63175,6.653085054967404
seg_d661ce,4.729623207869555
seg_d668c0,6.102734376981707
seg_d68930,8.888403493645484
seg_d693b0,9.366983437726745
seg_d6b198,4.0679634198181125
seg_d6b386,7.818924730957924
seg_d6b546,7.030895300896247
seg_d6dad6,6.663087991305992
seg_d6ea73,4.447631564719572
seg_d702b2,7.3591419309355315
seg_d71352,9.362121556461226
seg_d740b2,9.249461368358583
seg_d753f8,2.362112348097339
seg_d78093,3.9810641485317353
seg_d78e7d,2.2504515327939196
seg_d795ab,7.940840396610065
seg_d7967e,9.453852736856419
seg_d7a805,6.6571756732806815
seg_d7ab50,3.499112638133772
seg_d7f015,6.432955248892415
seg_d7f53a,4.575192866601157
seg_d8014d,5.76391117895478
seg_d83890,3.9621671554199187
seg_d85e2e,5.366256234151624
seg_d86eb6,3.2132586915721046
seg_d88da7,6.45002685848722
seg_d89369,2.4516363846145603
seg_d90c5f,3.0019823534368086
seg_d91492,7.971946978394358
seg_d9190c,4.221139147583909
seg_d9352b,5.918444362684211
seg_d962cc,9.104929108960782
seg_d9750c,5.170529689027828
seg_d9a2bb,5.280714505614952
seg_d9b162,6.472482608922348
seg_d9bb68,5.703306450388856
seg_d9ce67,3.275289922583141
seg_d9d0e4,4.592388503693354
seg_d9dab4,9.402636840113878
seg_da21ee,7.739516379231925
seg_da7c3b,8.302276740492394
seg_da80c4,8.745583822594568
seg_da8b88,4.0981378531699
seg_dab0f9,6.144653483696558
seg_dad4f2,7.0540706994955755
seg_db3446,8.529182549870498
seg_db3a95,5.588951769090842
seg_db3fbe,9.2466604585991
seg_db4185,4.01308425328677
seg_db606c,6.724712181267681
seg_db694a,5.375128820961823
seg_db6d5f,6.319964140272701
seg_db90c0,4.467276087553712
seg_dbbb44,6.2289024007373515
seg_dbc615,3.545838736207586
seg_dbf3f2,2.337786001005813
seg_dc188b,5.741439457384589
seg_dc1cf0,9.328041458596172
seg_dc23c0,8.932980018745763
seg_dc4698,3.3971058765882787
seg_dc5e63,2.2803189164025968
seg_dc6e94,4.456734637975739
seg_dc73b8,3.590584262087326
seg_dc7e0d,2.511740453265494
seg_dca2c2,8.612011092154955
seg_dcb51d,5.097405079688448
seg_dcbe02,4.355883164719543
seg_dcd9df,2.4508239792750026
seg_dcee28,6.068463151160751
seg_dceeca,4.401289340470623
seg_dcf242,6.695054866554084
seg_dcfb4b,9.242919494685744
seg_dd0b11,2.8530812148383573
seg_dd4594,3.9553765194961312
seg_dd699c,4.024257276675451
seg_dd780d,5.081007102183391
seg_dd8805,7.53369419027409
seg_ddbadc,9.397162206239754
seg_ddc800,8.053383054072874
seg_ddd206,5.594142910962848
seg_ddddf0,4.238904857641774
seg_de225c,10.091112840229759
seg_de3237,7.683955319308047
seg_de3d5e,4.679937441589318
seg_de4e1d,5.330513899658662
seg_de8180,2.4554434430478915
seg_de98fa,3.691418622704946
seg_de9e32,9.628752956130247
seg_df0df7,7.763685014192884
seg_df352f,3.4219260801124265
seg_df45b0,6.952108281219802
seg_df8385,3.460182829006275
seg_df8e0a,7.91907936882499
seg_df99d4,4.376672776035349
seg_dff078,5.174955996624124
seg_e00465,8.368326240271077
seg_e051bc,5.783049800393724
seg_e05de2,2.4199829938344384
seg_e067ab,6.946847328405775
seg_e09301,2.998819392235042
seg_e0c329,5.068513257591982
seg_e0ce38,9.788538172105271
seg_e0cfd4,6.899033917162392
seg_e0f296,8.918257630085197
seg_e10d3b,9.410019040757177
seg_e13bd8,5.2915707516662565
seg_e14149,6.826025837344021
seg_e1468f,9.12368063434401
seg_e15cb9,6.5006217018842545
seg_e197b8,4.66897459594699
seg_e1a9e0,6.909521839326475
seg_e1daa0,7.3955711633472045
seg_e1f045,6.609354492973504
seg_e1f081,9.134745438460872
seg_e20d76,5.149316260860594
seg_e217fc,5.584079627753891
seg_e2209b,4.5912483577722965
seg_e24496,8.470066295389675
seg_e24f69,5.041028671047925
seg_e256bd,3.0592882220664883
seg_e25aca,3.846538995023294
seg_e266f4,6.1686711549586075
seg_e27c0a,4.906585449221236
seg_e29670,3.287357331872945
seg_e2b8b1,9.949583064981772
seg_e2c82c,4.349830601931101
seg_e3005e,4.381511492344504
seg_e30e44,2.115316209694088
seg_e30ef5,2.7364954488098663
seg_e34052,4.524843355531811
seg_e37b8e,3.889792576459282
seg_e3b1f1,7.633792368763302
seg_e3ca24,9.458164966354351
seg_e3cf1a,4.168467547093839
seg_e3d751,0.5657193933889979
seg_e3dafa,9.11431635610091
seg_e3e762,8.840293088071267
seg_e40348,5.776501812571341
seg_e405fe,3.979248997206632
seg_e40d64,7.7166772938941754
seg_e41fc9,5.364737981940108
seg_e47d2b,5.184468893073307
seg_e481c7,6.28671327327802
seg_e48c23,8.33733790339766
seg_e49750,5.629904877035666
seg_e4c15a,5.437099770026139
seg_e4f203,4.851271268502376
seg_e4f403,4.925852982224944
seg_e50f16,11.300910076212421
seg_e52f8c,5.293149540016285
seg_e53a52,5.022434692708287
seg_e54932,8.521187227739059
seg_e5750a,9.533360318934314
seg_e59dca,9.430473107207298
seg_e5b510,4.455833281700357
seg_e5c033,6.119562712801294
seg_e5deec,4.753568931433113
seg_e5e238,3.7392493326506466
seg_e5f9ec,8.044974117834787
seg_e5fbc1,1.9945686002943446
seg_e60719,8.40536938511165
seg_e6307f,7.410041478489868
seg_e64dfa,6.322230027493662
seg_e65e69,4.5974631332110665
seg_e66697,4.332534799797648
seg_e6b236,7.768425046796392
seg_e6bd3f,4.4143290798780415
seg_e6c973,7.476448905180858
seg_e6e1df,1.0113724020733583
seg_e6e24e,5.644004197124762
seg_e71dda,5.745959169266998
seg_e72f10,9.829404391600322
seg_e742dc,10.107236836527463
seg_e76e6e,3.460706650951521
seg_e7ac12,4.9046605271722274
seg_e7ced6,7.7482094902918845
seg_e7d1f8,4.7608105536820915
seg_e7d3e7,6.029545313988288
seg_e80726,5.0144221469028185
seg_e81b50,4.204256564769293
seg_e8385f,9.128424644483456
seg_e85f55,3.1259333310050272
seg_e86e44,5.204539431880928
seg_e86ed1,9.421859715298623
seg_e86f77,3.638407330182178
seg_e877a5,5.964026918067961
seg_e8a2c4,6.575853971928845
seg_e8a4f4,5.9666382740374955
seg_e8ac98,3.7433150724371096
seg_e8ad6b,6.17736932178081
seg_e8b2b3,8.19497351536151
seg_e8bcde,2.7702317689577947
seg_e8ce6a,2.2516972918320763
seg_e8d02f,4.752346696512277
seg_e90c0d,4.910888214355468
seg_e92526,4.357546358228218
seg_e9272e,3.8395187186835926
seg_e96140,6.156821731167694
seg_e98217,3.562813060121864
seg_e9a09f,3.9895990346735064
seg_e9aa44,8.546239233783758
seg_e9df42,8.804916479290027
seg_e9e65b,6.197732733158321
seg_ea0091,5.158138651134792
seg_ea05c1,7.779732312419736
seg_ea096b,10.373722012701451
seg_ea098b,8.949165159087945
seg_ea4d3a,7.809979805031824
seg_ea78c0,3.8932879443257407
seg_ea8270,9.131104352898367
seg_ea9d37,2.827894319499322
seg_ea9fa4,10.835524171611974
seg_eaa0ec,7.075936651853274
seg_eabb2c,8.79316381470547
seg_eacccf,4.4994157536358825
seg_ead30e,5.532754229152028
seg_eb0b19,7.329643814077073
seg_eb1d6e,4.5143935655149185
seg_eb2e11,6.589991576500408
seg_eb32bc,2.697620501789756
seg_eb47a9,2.717509890150084
seg_eb692c,9.323055228327442
seg_eb7595,5.171485938684576
seg_eb7f91,5.952257241980101
seg_eba22d,9.190356506823402
seg_ebb79f,6.122469661053431
seg_ebd77b,10.733593576856844
seg_ebe36c,5.672318596642337
seg_ebec3e,3.0609508627875286
seg_ec0e7b,6.001718276423263
seg_ec4645,3.499357337125581
seg_ec73d5,3.620939491148946
seg_ec973c,10.98622362301327
seg_eca2eb,5.39943208198665
seg_ecaef0,6.3546142698980015
seg_eccb17,1.8140188621730613
seg_ecdca4,5.165204371083978
seg_ecf28d,6.839948124994303
seg_ecf81b,8.247537446279178
seg_ed07b0,5.41163296678843
seg_ed3e4c,7.089623932253178
seg_ed52ac,8.020177241987312
seg_ed7741,8.660360418723895
seg_ed7dee,4.8560351970004225
seg_ed7f69,2.475812347747256
seg_edda79,6.567160268987854
seg_edecaa,5.558236937364952
seg_ee1cfc,5.0158992842364585
seg_ee2781,9.49861124285839
seg_ee4479,3.9214994344472864
seg_ee4ae5,3.8251532692925347
seg_ee7224,2.701292042158016
seg_ee87e2,4.365798362753113
seg_ee8f87,5.375940337278966
seg_eea20e,7.4786319318338395
seg_eebbc2,5.169651110573957
seg_eee89d,2.418391704052557
seg_eefd4a,2.796725652487072
seg_ef24bd,4.241767896345973
seg_ef27c8,3.8242436883268
seg_ef47c4,9.64760244610504
seg_ef644a,6.858630702872749
seg_ef660a,9.2504252586919
seg_ef74dc,5.588514222468552
seg_ef779d,3.7201016990096614
seg_ef9105,8.922827572943781
seg_efb639,7.3582810212196925
seg_efbf3e,7.189849682069179
seg_efc5fb,7.96416905091772
seg_efd9ec,7.493506189628467
seg_f003ca,7.118769091259724
seg_f01368,7.09117957813668
seg_f0181d,5.106177181235941
seg_f02d32,5.545597850899343
seg_f056d8,5.750142907355128
seg_f0574b,4.940040746717881
seg_f073e2,5.235868727473983
seg_f0ce4a,4.20431588625123
seg_f0cedb,6.39381495890428
seg_f0d278,3.038567961931462
seg_f0db55,2.317410711302581
seg_f11620,4.973488651989991
seg_f11f77,6.314848383245619
seg_f165f6,2.153263697057508
seg_f19f8e,8.935114142628237
seg_f1a771,4.335917882057085
seg_f1b916,2.8152878967958697
seg_f1f5b9,2.921583357117077
seg_f21a22,3.119689593535522
seg_f21bf4,6.902054611814169
seg_f22163,9.672041209403995
seg_f229bf,5.848244502775582
seg_f24292,4.786459441505077
seg_f2750c,6.495877867285644
seg_f2a20d,4.888996989013007
seg_f2ae5e,5.954278929455219
seg_f2b0c5,3.1578527923423607
seg_f2cb5e,3.5345451198522926
seg_f2f5a3,1.958189314982108
seg_f3063a,6.7267111818829255
seg_f30b2f,7.272292547251127
seg_f30f0c,6.444872531184357
seg_f322b1,5.959240119922296
seg_f342a3,3.687530642456979
seg_f34877,7.501184200771056
seg_f383fb,4.801168066149409
seg_f3c578,4.614533927349669
seg_f43730,6.164558242027557
seg_f43ab6,1.6158419079059634
seg_f455bc,10.190471335084595
seg_f46cc1,3.09193303074384
seg_f48363,3.7859837395833917
seg_f48db9,4.402312847965227
seg_f4ad4b,4.975899060596061
seg_f4d644,3.458521877873614
seg_f52cdc,10.964275181296973
seg_f5406b,5.201147826028785
seg_f579ba,3.8989443123310004
seg_f57ca1,9.94631018229506
seg_f59974,7.84705285075926
seg_f5a4ee,9.859716163454465
seg_f5a6ab,7.026936150387788
seg_f5d2dd,9.067721988724438
seg_f5e682,3.800604835889124
seg_f60872,7.148828776905942
seg_f618a8,7.967535580463283
seg_f61b0e,5.755510705507438
seg_f639cd,9.676775931867631
seg_f639ec,5.701633086346418
seg_f650cc,3.4667141897081852
seg_f6659e,2.122000013482482
seg_f66db1,7.271643457494695
seg_f679c6,8.837965744412067
seg_f67ce2,3.63433028733165
seg_f6828d,1.8881738071832237
seg_f69c38,5.1471703216727125
seg_f6a217,3.862973767214345
seg_f6abc5,9.243770114757446
seg_f6b70c,6.171203440684524
seg_f6bae8,4.360906991943802
seg_f6c0cb,3.099596941038395
seg_f6c928,7.915052719345621
seg_f6cfd4,6.832786362376577
seg_f6d51b,2.431989358457145
seg_f6e1ca,4.052714608547026
seg_f6e89f,8.273853686676759
seg_f6f523,3.458737253941989
seg_f6f683,5.666574038888886
seg_f7050a,4.203980979244356
seg_f70b66,5.4819968975711255
seg_f71db8,6.256435144805874
seg_f7290f,4.791655434933884
seg_f734c8,9.03062805663866
seg_f741af,3.355634775346661
seg_f77ee5,9.538954825061799
seg_f7d792,2.2171062835045077
seg_f7de40,6.414303173347932
seg_f80e44,5.3268093002043555
seg_f83d28,3.8789913465854164
seg_f865be,3.196480495623864
seg_f86c41,5.808219034749878
seg_f88d4a,3.3807609455278005
seg_f8db0a,3.7421975880485974
seg_f8dd7e,4.513604346347572
seg_f931de,4.455898782507113
seg_f93ce5,4.818176888484878
seg_f95fd3,8.578448542929694
seg_f96d0e,3.2702132220950726
seg_f96d5a,7.84871697209608
seg_f97274,2.4750829109152583
seg_f99b64,6.535485370781996
seg_f9e4f2,10.11178515619131
seg_f9eea3,4.9771786452584506
seg_fa0ac7,6.3071444822204725
seg_fa34c7,6.249965564575898
seg_fa488e,4.656509860875222
seg_fa4df0,4.104584271928292
seg_fa6383,7.00069141018711
seg_fa796b,4.9011251036293455
seg_fa9f00,5.63818229179114
seg_fad815,4.393502853818283
seg_fb00b3,8.57319500969311
seg_fb11ba,6.346175394415099
seg_fb1f5c,9.207403935594535
seg_fb4c26,6.181408294889869
seg_fb74f0,6.65611371687926
seg_fb76ca,6.23907392421299
seg_fb8af5,4.566400288751765
seg_fb9491,3.72581593552228
seg_fb9b2e,8.81684196555722
seg_fbce13,3.7152765024402883
seg_fbd66b,3.5620916175156037
seg_fbddb9,8.607626772073342
seg_fbe3c2,5.049247864578925
seg_fbf17a,7.750456271190796
seg_fbff25,2.133833385982315
seg_fc407c,4.653806535424158
seg_fc57d4,3.059151336065188
seg_fc8fd6,2.2546084346545734
seg_fcb7d0,9.83833460550025
seg_fcca66,4.807193991309328
seg_fcd32e,6.109562567068889
seg_fd19b8,10.156633853811984
seg_fd374e,5.624602858064192
seg_fd6340,5.2348794906831735
seg_fd8add,6.6738505018263306
seg_fd9ac1,5.17405983776705
seg_fdba93,4.815498228928174
seg_fdc1d4,3.6539667751231444
seg_fdd50e,3.43305075367749
seg_fde767,6.91515295293724
seg_fde86d,8.13396768380099
seg_fdff11,2.338321076734388
seg_fe2aac,4.996790921979525
seg_fe5945,2.6891621578367806
seg_fe70c0,7.645245594453344
seg_fe73b1,9.344483323386545
seg_fe86f5,4.2934062798246835
seg_fea3e2,8.411221002152736
seg_feb312,7.684300233092049
seg_fedbd1,8.525699875129229
seg_ff0f1b,4.385050029622137
seg_ff1a62,9.422142402674785
seg_ff2f2d,6.160925546806871
seg_ff4236,6.595288950352543
seg_ff7478,6.392073422910664
seg_ff79d9,3.842288665392615
seg_ffbd6a,2.0212579579265024
seg_ffe7cc,8.108900610873704
